Fecha,Recaudador,Maestro,Periodo,Monto
11/11/17,Nicolas Blanco,Dario Vetere,11/17," $ 350 "
11/11/17,Nicolas Blanco,Sol Nasif,11/17," $ 350 "
11/11/17,Nicolas Blanco,Claudia Cristina Balea,11/17," $ 200 "
11/11/17,Nicolas Blanco,Nicolas Blanco,11/17," $ 350 "
20/11/17,Néstor Jorge Avella,Mayra Serrudo,11/17," $ 300 "
20/11/17,Néstor Jorge Avella,Néstor Jorge Avella,11/17," $ 300 "
20/11/17,Néstor Jorge Avella,Ramiro Alejo Ruiz Cabaleiro,08/17," $ 300 "
20/11/17,Néstor Jorge Avella,Ramiro Alejo Ruiz Cabaleiro,09/17," $ 300 "
20/11/17,Néstor Jorge Avella,Ramiro Alejo Ruiz Cabaleiro,10/17," $ 300 "
20/11/17,Néstor Jorge Avella,Ramiro Alejo Ruiz Cabaleiro,11/17," $ 300 "
20/11/17,Néstor Jorge Avella,Ramiro Alejo Ruiz Cabaleiro,12/17," $ 300 "
03/11/17,Norma Nilda Melo,Claudia Barbagallo,11/17," $ 350 "
03/11/17,Norma Nilda Melo,Luis Tebes,11/15," $ 350 "
03/11/17,Norma Nilda Melo,Anabela Barberena,11/17," $ 550 "
03/11/17,Norma Nilda Melo,Norma Nilda Melo,11/17," $ 400 "
04/11/17,Norma Nilda Melo,Ruben Ismain,11/17," $ 1.000 "
04/11/17,Norma Nilda Melo,Juan José Castro,10/17," $ 350 "
04/11/17,Norma Nilda Melo,Juan José Castro,11/17," $ 350 "
04/11/17,Norma Nilda Melo,Roberto Kohanoff,11/17," $ 350 "
04/11/17,Norma Nilda Melo,Cristina Bretta,11/17," $ 350 "
04/11/17,Norma Nilda Melo,Gabriela Iris Balbuena,11/17," $ 400 "
04/11/17,Marina Beatriz Rojas,Marina Beatriz Rojas,07/17," $ 350 "
04/11/17,Marina Beatriz Rojas,Marina Beatriz Rojas,08/17," $ 350 "
04/11/17,Marina Beatriz Rojas,Marina Beatriz Rojas,09/17," $ 350 "
04/11/17,Marina Beatriz Rojas,Marina Beatriz Rojas,10/17," $ 350 "
04/11/17,Marina Beatriz Rojas,Marina Beatriz Rojas,11/17," $ 350 "
04/11/17,Marina Beatriz Rojas,Marina Beatriz Rojas,12/17," $ 350 "
04/11/17,Marina Beatriz Rojas,Marina Beatriz Rojas,01/18," $ 350 "
04/11/17,Marina Beatriz Rojas,Marina Beatriz Rojas,02/18," $ 350 "
04/11/17,Marina Beatriz Rojas,Marina Beatriz Rojas,03/18," $ 350 "
04/11/17,Marina Beatriz Rojas,Marina Beatriz Rojas,04/18," $ 350 "
04/11/17,Marina Beatriz Rojas,Marina Beatriz Rojas,05/18," $ 350 "
04/11/17,Marina Beatriz Rojas,Marina Beatriz Rojas,06/18," $ 350 "
22/11/17,Carlos Damián Muñoz,Carlos Damián Muñoz,06/17," $ 300 "
22/11/17,Carlos Damián Muñoz,Carlos Damián Muñoz,07/17," $ 300 "
09/11/17,Carlos Damián Muñoz,Celia Patricia Centurión Espínola,10/17," $ 400 "
09/11/17,Carlos Damián Muñoz,Romina Paola Vidal Zinno,10/17," $ 300 "
09/11/17,Carlos Damián Muñoz,Pablo Ariel Lopez,10/17," $ 300 "
10/11/17,Maria Eugenia Vittori,Maria Eugenia Vittori,11/17," $ 300 "
07/11/17,Néstor Jorge Avella,Mayra Serrudo,09/17," $ 300 "
07/11/17,Néstor Jorge Avella,Néstor Jorge Avella,09/17," $ 300 "
07/11/17,Néstor Jorge Avella,Mayra Serrudo,10/17," $ 300 "
07/11/17,Néstor Jorge Avella,Néstor Jorge Avella,10/17," $ 300 "
15/11/17,Carina Mariana Fichera,Adriana Alicia Ocampo,09/17," $ 350 "
15/11/17,Carina Mariana Fichera,Rocío Balboa,11/17," $ 800 "
04/11/17,Jose Luis Miranda,David Parentti,10/17," $ 400 "
04/11/17,Jose Luis Miranda,David Parentti,11/17," $ 400 "
04/11/17,Norma Nilda Melo,Luis Beltrán,11/17," $ 350 "
07/11/17,Norma Nilda Melo,Lucero Catarineu,11/17," $ 150 "
07/11/17,Norma Nilda Melo,Oscar Mileti,11/17," $ 150 "
08/11/17,Norma Nilda Melo,Graciela Carmen Lazzatti,11/17," $ 300 "
08/11/17,Norma Nilda Melo,Alberto Mario Druetta,11/17," $ 350 "
01/11/17,Norma Nilda Melo,María Cristina Güntsche,11/17," $ 1.000 "
01/11/17,Norma Nilda Melo,Benjamin Aquino,11/17," $ 1.000 "
01/11/17,Norma Nilda Melo,Jorge Pompei,11/17," $ 350 "
01/11/17,Norma Nilda Melo,Ana Maria Riso,11/17," $ 350 "
01/11/17,Norma Nilda Melo,Noemi Otero,09/17," $ 300 "
01/11/17,Norma Nilda Melo,Noemi Otero,10/17," $ 300 "
01/11/17,Norma Nilda Melo,Noemi Otero,11/17," $ 300 "
01/11/17,Norma Nilda Melo,Noemi Otero,12/17," $ 300 "
