Fecha,Recaudador,Maestro,Periodo,Monto
01/12/17,Javier Zaldarriaga,Ezequiel Nicastro,10/17," $ 250 "
01/12/17,Javier Zaldarriaga,Marta Mabel Blanco,10/17," $ 200 "
01/12/17,Javier Zaldarriaga,Fabián Nicastro,11/17," $ 250 "
10/12/17,Javier Zaldarriaga,Fabián Nicastro,12/17," $ 250 "
10/12/17,Javier Zaldarriaga,Pina  Greco,12/17," $ 800 "
23/12/17,Javier Zaldarriaga,Javier Zaldarriaga,12/17," $ 1.000 "
23/12/17,Javier Zaldarriaga,Raúl Eduardo Tolentino Zamorano,12/17," $ 1.000 "
23/12/17,Javier Zaldarriaga,Luis Ammann,12/17," $ 250 "
23/12/17,Javier Zaldarriaga,Nelida Rey,12/17," $ 250 "
23/12/17,Javier Zaldarriaga,Ezequiel Nicastro,11/17," $ 250 "
23/12/17,Javier Zaldarriaga,Marta Mabel Blanco,11/17," $ 200 "
23/12/17,Javier Zaldarriaga,Ezequiel Nicastro,12/17," $ 250 "
23/12/17,Javier Zaldarriaga,Marta Mabel Blanco,12/17," $ 200 "
27/12/17,Javier Zaldarriaga,Jorge Alberto Gomez Libonatti,12/17," $ 550 "
31/12/17,Javier Zaldarriaga,Javier Zaldarriaga,12/17," $ 1.000 "
31/12/17,Javier Zaldarriaga,Sandra Pampuro,12/17," $ 1.000 "
31/12/17,Javier Zaldarriaga,Jorge D'Alesio,12/17," $ 4.000 "
15/12/17,Carlos Damián Muñoz,Gladis Delgado,09/17," $ 300 "
15/12/17,Carlos Damián Muñoz,Gladis Delgado,10/17," $ 300 "
15/12/17,Carlos Damián Muñoz,Celia Patricia Centurión Espínola,11/17," $ 400 "
23/12/17,Carlos Damián Muñoz,Fernando Contreras,07/17," $ 350 "
23/12/17,Carlos Damián Muñoz,Fernando Contreras,08/17," $ 350 "
23/12/17,Carlos Damián Muñoz,Fernando Contreras,09/17," $ 350 "
23/12/17,Carlos Damián Muñoz,Fernando Contreras,10/17," $ 350 "
23/12/17,Carlos Damián Muñoz,Fernando Contreras,11/17," $ 350 "
26/12/17,Carlos Damián Muñoz,Gladis Delgado,11/17," $ 300 "
26/12/17,Carlos Damián Muñoz,Gladis Delgado,12/17," $ 300 "
26/11/17,Carlos Damián Muñoz,Diego Dorado,03/17," $ 250 "
26/11/17,Carlos Damián Muñoz,Diego Dorado,04/17," $ 250 "
26/11/17,Carlos Damián Muñoz,Diego Dorado,05/17," $ 250 "
26/11/17,Carlos Damián Muñoz,Diego Dorado,06/17," $ 250 "
26/11/17,Carlos Damián Muñoz,Diego Dorado,07/17," $ 250 "
26/11/17,Carlos Damián Muñoz,Diego Dorado,08/17," $ 250 "
26/11/17,Carlos Damián Muñoz,Diego Dorado,09/17," $ 250 "
26/11/17,Carlos Damián Muñoz,Diego Dorado,10/17," $ 250 "
26/11/17,Carlos Damián Muñoz,Diego Dorado,11/17," $ 250 "
26/11/17,Carlos Damián Muñoz,Diego Dorado,12/17," $ 250 "
26/11/17,Carlos Damián Muñoz,Gustavo Osvaldo Ocampo,09/17," $ 350 "
26/11/17,Carlos Damián Muñoz,Gustavo Osvaldo Ocampo,10/17," $ 350 "
26/11/17,Carlos Damián Muñoz,Gustavo Osvaldo Ocampo,11/17," $ 350 "
27/11/17,Carlos Damián Muñoz,Gladis Delgado,07/17," $ 300 "
27/11/17,Carlos Damián Muñoz,Gladis Delgado,08/17," $ 300 "
02/12/17,Carlos Damián Muñoz,Santiago Gonzalez Rojo,09/17," $ 500 "
02/12/17,Carlos Damián Muñoz,Santiago Gonzalez Rojo,10/17," $ 500 "
02/12/17,Carlos Damián Muñoz,Santiago Gonzalez Rojo,11/17," $ 500 "
02/12/17,Carlos Damián Muñoz,Santiago Gonzalez Rojo,12/17," $ 500 "
11/12/17,Carlos Damián Muñoz,Eva Guzmán,07/17," $ 500 "
11/12/17,Carlos Damián Muñoz,Eva Guzmán,08/17," $ 500 "
11/12/17,Carlos Damián Muñoz,Eva Guzmán,09/17," $ 500 "
11/12/17,Carlos Damián Muñoz,Eva Guzmán,10/17," $ 500 "
11/12/17,Carlos Damián Muñoz,Eva Guzmán,11/17," $ 500 "
11/12/17,Carlos Damián Muñoz,Eva Guzmán,12/17," $ 500 "
11/12/17,Carlos Damián Muñoz,Pablo Ariel Lopez,11/17," $ 300 "
11/12/17,Carlos Damián Muñoz,Romina Paola Vidal Zinno,11/17," $ 300 "
10/12/17,Carlos Damián Muñoz,Gustavo Osvaldo Ocampo,12/17," $ 350 "
10/12/17,Patricia Segovia,Julio Aquino,10/17," $ 350 "
10/12/17,Patricia Segovia,Julio Aquino,11/17," $ 350 "
10/12/17,Patricia Segovia,Nelida Rey,10/17," $ 250 "
10/12/17,Patricia Segovia,Luis Ammann,10/17," $ 250 "
10/12/17,Patricia Segovia,Julio Aquino,12/17," $ 350 "
10/12/17,Patricia Segovia,Mónica Andrea Kernc,12/17," $ 300 "
10/12/17,Patricia Segovia,Pablo Ales,12/17," $ 300 "
10/12/17,Patricia Segovia,Patricia Segovia,10/17," $ 300 "
10/12/17,Angel De Natale,Maria Andrea Díaz Robledo,01/18," $ 350 "
10/12/17,Angel De Natale,Maria Andrea Díaz Robledo,02/18," $ 350 "
10/12/17,Angel De Natale,Maria Andrea Díaz Robledo,03/18," $ 350 "
10/12/17,Angel De Natale,Angel De Natale,01/18," $ 350 "
10/12/17,Angel De Natale,Angel De Natale,02/18," $ 350 "
10/12/17,Angel De Natale,Angel De Natale,03/18," $ 350 "
29/12/17,Jose Luis Miranda,David Parentti,12/17," $ 400 "
29/12/17,Jose Luis Miranda,David Parentti,01/18," $ 400 "
29/12/17,Jose Luis Miranda,David Parentti,02/18," $ 400 "
29/12/17,Jose Luis Miranda,Fabiana Haydee Martinez,11/17," $ 400 "
10/12/17,Nicolas Blanco,Dario Vetere,12/17," $ 350 "
10/12/17,Nicolas Blanco,Sol Nasif,12/17," $ 350 "
10/12/17,Nicolas Blanco,Claudia Cristina Balea,12/17," $ 200 "
10/12/17,Nicolas Blanco,Nicolas Blanco,12/17," $ 350 "
01/12/17,Norma Nilda Melo,Sandra Walas,12/17," $ 500 "
01/12/17,Norma Nilda Melo,Anabela Barberena,12/17," $ 550 "
04/12/17,Norma Nilda Melo,Luis Beltrán,12/17," $ 350 "
03/12/17,Norma Nilda Melo,María Cristina Güntsche,12/17," $ 1.000 "
03/12/17,Norma Nilda Melo,Benjamin Aquino,12/17," $ 1.000 "
04/12/17,Norma Nilda Melo,Norma Nilda Melo,12/17," $ 400 "
05/12/17,Norma Nilda Melo,Claudia Barbagallo,12/17," $ 350 "
05/12/17,Norma Nilda Melo,Luis Tebes,12/17," $ 350 "
05/12/17,Norma Nilda Melo,Graciela Carmen Lazzatti,12/17," $ 300 "
05/12/17,Norma Nilda Melo,Alberto Mario Druetta,12/17," $ 350 "
05/12/17,Norma Nilda Melo,Nelida Rey,11/17," $ 250 "
05/12/17,Norma Nilda Melo,Luis Ammann,11/17," $ 250 "
05/12/17,Norma Nilda Melo,Lucero Catarineu,12/17," $ 150 "
14/12/17,Norma Nilda Melo,Cristina Bretta,12/17," $ 350 "
06/12/17,Norma Nilda Melo,Ana Maria Riso,12/17," $ 300 "
09/12/17,Norma Nilda Melo,Verónica Julieta Torres,12/17," $ 200 "
14/12/17,Norma Nilda Melo,Anne Thiébaut,10/17," $ 250 "
14/12/17,Norma Nilda Melo,Anne Thiébaut,11/17," $ 250 "
14/12/17,Norma Nilda Melo,Anne Thiébaut,12/17," $ 250 "
14/12/17,Norma Nilda Melo,Anne Thiébaut, 02/18," $ 250 "
18/12/17,Norma Nilda Melo,Nelida Rey,12/17," $ 375 "
18/12/17,Norma Nilda Melo,Luis Ammann,12/17," $ 375 "
23/12/17,Norma Nilda Melo,Blanca Leal,11/17," $ 350 "
23/12/17,Norma Nilda Melo,Blanca Leal,12/17," $ 350 "
23/12/17,Norma Nilda Melo,Roberto Kohanoff,12/17," $ 500 "
23/12/17,Norma Nilda Melo,Osvaldo Sosa,12/17," $ 1.000 "
24/12/17,Norma Nilda Melo,Benjamin Aquino, 01/18," $ 1.000 "
24/12/17,Norma Nilda Melo,María Cristina Güntsche, 01/18," $ 1.000 "
24/12/17,Norma Nilda Melo,Norma Nilda Melo, 01/18," $ 400 "
06/12/17,Maria Eugenia Vittori,Maria Eugenia Vittori,12/17," $ 400 "
06/12/17,Maria Eugenia Vittori,Rodolfo Oscar Juarez Lertora,06/17," $ 200 "
06/12/17,Maria Eugenia Vittori,Rodolfo Oscar Juarez Lertora,07/17," $ 200 "
06/12/17,Maria Eugenia Vittori,Rodolfo Oscar Juarez Lertora,08/17," $ 200 "
06/12/17,Maria Eugenia Vittori,Rodolfo Oscar Juarez Lertora,09/17," $ 200 "
06/12/17,Maria Eugenia Vittori,Rodolfo Oscar Juarez Lertora,10/17," $ 200 "
06/12/17,Maria Eugenia Vittori,Rodolfo Oscar Juarez Lertora,11/17," $ 200 "
06/12/17,Maria Eugenia Vittori,Rodolfo Oscar Juarez Lertora,12/17," $ 200 "
06/12/17,Maria Eugenia Vittori,Thelma Reymundo-Juarez,06/17," $ 200 "
06/12/17,Maria Eugenia Vittori,Thelma Reymundo-Juarez,07/17," $ 200 "
06/12/17,Maria Eugenia Vittori,Thelma Reymundo-Juarez,08/17," $ 200 "
06/12/17,Maria Eugenia Vittori,Thelma Reymundo-Juarez,09/17," $ 200 "
06/12/17,Maria Eugenia Vittori,Thelma Reymundo-Juarez,10/17," $ 200 "
06/12/17,Maria Eugenia Vittori,Thelma Reymundo-Juarez,11/17," $ 200 "
06/12/17,Maria Eugenia Vittori,Thelma Reymundo-Juarez,12/17," $ 200 "
01/12/17,Carina Mariana Fichera,Romina Vera,11/17," $ 300 "
01/12/17,Carina Mariana Fichera,Romina Vera,12/17," $ 300 "
01/12/17,Carina Mariana Fichera,Carina Mariana Fichera,08/17," $ 300 "
01/12/17,Carina Mariana Fichera,Carina Mariana Fichera,09/17," $ 300 "
01/12/17,Carina Mariana Fichera,Carina Mariana Fichera,10/17," $ 300 "
01/12/17,Carina Mariana Fichera,Carina Mariana Fichera,11/17," $ 300 "
01/12/17,Carina Mariana Fichera,Carina Mariana Fichera,12/17," $ 300 "
01/12/17,Carina Mariana Fichera,Claudia Alejandra Alvarez ,12/17," $ 400 "
01/12/17,Carina Mariana Fichera,Daniel Tagliafico,12/17," $ 500 "
01/12/17,Carina Mariana Fichera,Norma Coronel,12/17," $ 300 "
01/12/17,Carina Mariana Fichera,Andrés Pellegrini,12/17," $ 300 "
01/12/17,Carina Mariana Fichera,Adriana Alicia Ocampo,10/17," $ 250 "
01/12/17,Carina Mariana Fichera,Adriana Alicia Ocampo,11/17," $ 250 "
01/12/17,Carina Mariana Fichera,María Julieta  Spagnuolo,07/17," $ 350 "
01/12/17,Carina Mariana Fichera,María Julieta  Spagnuolo,08/17," $ 350 "
01/12/17,Carina Mariana Fichera,María Julieta  Spagnuolo,09/17," $ 440 "
29/12/17,Jose Luis Miranda,David Parentti,12/17," $ 400 "
29/12/17,Jose Luis Miranda,David Parentti,01/18," $ 400 "
29/12/17,Jose Luis Miranda,David Parentti,02/18," $ 400 "
29/12/17,Jose Luis Miranda,Fabiana Haydee Martinez,11/17," $ 400 "
