Fecha,Recaudador,Maestro,Periodo,Monto
14/02/18,Norma Nilda Melo,Claudia Neva,02/18," $ 300 "
16/02/18,Norma Nilda Melo,Guillermina Noro,02/18," $ 500 "
21/02/18,Norma Nilda Melo,Nestor Camillieri,03/18," $ 350 "
22/02/18,Norma Nilda Melo,Ana Maria   Riso,01/18," $ 300 "
22/02/18,Norma Nilda Melo,Ana Maria   Riso,02/18," $ 300 "
24/02/18,Norma Nilda Melo,Gabriela Iris Balbuena,02/18," $ 200 "
25/02/18,Norma Nilda Melo,Anne Thiebaut,02/18," $ 350 "
25/02/18,Norma Nilda Melo,Diana Astete,02/18," $ 500 "
28/03/18,Norma Nilda Melo,Sandra Walas,02/18," $ 500 "
02/03/18,Norma Nilda Melo,Anabela Barbarena,03/18," $ 600 "
02/03/18,Norma Nilda Melo,Norma Nilda Melo,03/18," $ 500 "
03/03/18,Norma Nilda Melo,Osvaldo Sosa,03/18," $ 400 "
03/03/18,Norma Nilda Melo,Benjamin Aquino,03/18," $ 1.000 "
03/03/18,Norma Nilda Melo,María Cristina Güntsche,03/18," $ 1.000 "
03/03/18,Norma Nilda Melo,Juan José Castro,12/17," $ 350 "
03/03/18,Norma Nilda Melo,Juan José Castro,01/18," $ 350 "
03/03/18,Norma Nilda Melo,Florencia Uruzuna ,03/18," $ 300 "
03/03/18,Norma Nilda Melo,Roberto Kohanoff,01/18," $ 350 "
03/03/18,Norma Nilda Melo,Roberto Kohanoff,02/18," $ 350 "
03/03/18,Norma Nilda Melo,Roberto Kohanoff,03/18," $ 350 "
03/03/18,Norma Nilda Melo,Alejandro Roger,02/18," $ 350 "
03/03/18,Norma Nilda Melo,Cecilia Benitez,03/18," $ 200 "
03/03/18,Norma Nilda Melo,Blas Quiñones,03/18," $ 600 "
03/03/18,Norma Nilda Melo,Norma Coronel,03/18," $ 500 "
03/03/18,Norma Nilda Melo,Carlos Eduardo Sarmasky,03/18," $ 2.000 "
03/03/18,Norma Nilda Melo,Jorge Pompei,03/18," $ 500 "
03/03/18,Norma Nilda Melo,Cristina Suarez,03/18," $ 300 "
03/03/18,Norma Nilda Melo,Cristina Suarez,04/18," $ 300 "
06/03/18,Norma Nilda Melo,Lucero Catarineu,03/18," $ 150 "
06/03/18,Norma Nilda Melo,Oscar Mileti,03/18," $ 150 "
07/03/18,Norma Nilda Melo,Claudia Barbagallo,03/18," $ 400 "
07/03/18,Norma Nilda Melo,Luis Tebes,03/18," $ 400 "
07/03/18,Norma Nilda Melo,Claudia Neva,03/18," $ 300 "
08/03/18,Norma Nilda Melo,Carlos Omar Luciani,03/18," $ 300 "
09/03/18,Norma Nilda Melo,Alberto Mario Druetta,03/18," $ 350 "
09/03/18,Norma Nilda Melo,Graciela Carmen Lazzatti,03/18," $ 400 "
15/03/18,Norma Nilda Melo,Jorge Mieres,01/18," $ 400 "
15/03/18,Norma Nilda Melo,Jorge Mieres,02/18," $ 400 "
15/03/18,Norma Nilda Melo,Jorge Mieres,05/18," $ 400 "
15/03/18,Norma Nilda Melo,Jorge Mieres,04/18," $ 400 "
15/03/18,Norma Nilda Melo,Nestor Camillieri,03/18," $ 350 "
16/03/18,Norma Nilda Melo,Eduardo Haddad,03/18," $ 500 "
16/03/18,Norma Nilda Melo,Guillermina Noro,03/18," $ 250 "
24/03/18,Norma Nilda Melo,Anne Thibau,03/18," $ 400 "
26/03/18,Norma Nilda Melo,Pablo Sequeira,03/18," $ 500 "
27/03/18,Norma Nilda Melo,Lia Mendez,03/18," $ 500 "
07/03/18,Néstor Jorge Avella,Griselda Dora Nicolini,01/18," $ 500 "
07/03/18,Néstor Jorge Avella,Griselda Dora Nicolini,02/18," $ 500 "
07/03/18,Néstor Jorge Avella,Griselda Dora Nicolini,03/18," $ 500 "
07/03/18,Néstor Jorge Avella,Juan José Fulgi,01/18," $ 500 "
07/03/18,Néstor Jorge Avella,Juan José Fulgi,02/18," $ 500 "
07/03/18,Néstor Jorge Avella,Juan José Fulgi,03/18," $ 500 "
07/03/18,Patricia Segovia,Hernán Castro,01/18," $ 600 "
07/03/18,Patricia Segovia,Hernán Castro,02/18," $ 600 "
07/03/18,Patricia Segovia,Hernán Castro,03/18," $ 600 "
21/02/18,Carlos Damián  Muñoz,Gustavo Osvaldo Ocampo,02/18," $ 350 "
21/02/18,Carlos Damián  Muñoz,Carlos Damián  Muñoz,03/18," $ 400 "
23/02/18,Carlos Damián  Muñoz,Celia Patricia Centurión Espínola,02/18," $ 600 "
26/02/18,Carlos Damián  Muñoz,Gladis Delgado,02/18," $ 300 "
26/02/18,Carlos Damián  Muñoz,VINCENZO CARELLA,02/18," $ 150 "
03/03/18,Carlos Damián  Muñoz,Tamara Ferrer,02/18," $ 300 "
04/03/18,Carlos Damián  Muñoz,Gustavo Osvaldo Ocampo,03/18," $ 400 "
07/03/18,Carlos Damián  Muñoz,Celia Patricia Centurión Espínola,03/18," $ 400 "
06/03/18,Carlos Damián  Muñoz,Pablo Ariel Lopez,03/18," $ 500 "
06/03/18,Carlos Damián  Muñoz,Romina Paola Vidal Zinno,03/18," $ 500 "
11/03/18,Javier Zaldarriaga,Fabián Nicastro,03/18," $ 250 "
11/03/18,Javier Zaldarriaga,Sandra Pampuro,03/18," $ 300 "
24/03/18,Javier Zaldarriaga,Carmen Souto,01/18," $ 400 "
24/03/18,Javier Zaldarriaga,Carmen Souto,02/18," $ 400 "
24/03/18,Javier Zaldarriaga,Carmen Souto,03/18," $ 400 "
24/03/18,Javier Zaldarriaga,Carmen Souto,04/18," $ 400 "
24/03/18,Javier Zaldarriaga,Carmen Souto,05/18," $ 400 "
24/03/18,Javier Zaldarriaga,Carmen Souto,06/18," $ 400 "
24/03/18,Martin Ubaldo Baez,Martin Ubaldo Baez,03/18," $ 300 "
24/03/18,Martin Ubaldo Baez,Martin Ubaldo Baez,04/18," $ 300 "
24/03/18,Martin Ubaldo Baez,Martin Ubaldo Baez,05/18," $ 400 "
24/03/18,Martin Ubaldo Baez,Maria Fernanda Caprara,03/18," $ 500 "
24/03/18,Martin Ubaldo Baez,Maria Fernanda Caprara,04/18," $ 500 "
04/03/18,Daniela Yastrubni,Norma Coronel,03/18," $ 350 "
04/03/18,Daniela Yastrubni,Andrés Pellegrini,03/18," $ 350 "
03/03/18,Sergio Spano,Ezequiel Nicastro,02/18," $ 250 "
03/03/18,Sergio Spano,Marta Mabel Blanco,02/18," $ 200 "
03/03/18,Sergio Spano,Silvia Amodeo,03/18," $ 350 "
04/03/18,Sergio Spano,Hector Lefer,11/17," $ 250 "
04/03/18,Sergio Spano,Hector Lefer,12/17," $ 250 "
04/03/18,Sergio Spano,Hector Lefer,01/18," $ 250 "
04/03/18,Sergio Spano,Hector Lefer,02/18," $ 250 "
04/03/18,Sergio Spano,Edgardo Alberto Herrera,03/18," $ 300 "
24/03/18,Sergio Spano,Sergio Spano,03/18," $ 400 "
31/03/18,Sergio Spano,Ezequiel Nicastro,03/18," $ 300 "
31/03/18,Sergio Spano,Marta Mabel Blanco,03/18," $ 200 "
03/03/18,Nicolás Blanco,Dario Vetere,03/18," $ 350 "
03/03/18,Nicolás Blanco,Soledad  Nasif,03/18," $ 350 "
03/03/18,Nicolás Blanco,Nicolás Blanco,03/18," $ 350 "
03/03/18,Nicolás Blanco,Claudia Cristina Balea,03/18," $ 250 "
03/03/18,Romina Vera,Romina Vera,02/18," $ 400 "
03/03/18,Romina Vera,Romina Vera,03/18," $ 400 "
07/03/18,Néstor Jorge Avella,Jorge Alberto Gomez Libonatti,02/18," $ 450 "
07/03/18,Néstor Jorge Avella,Jorge Alberto Gomez Libonatti,03/18," $ 450 "
11/03/18,Maria Eugenia Vittori,Maria Eugenia Vittori,03/18," $ 500 "
11/03/18,Maria Eugenia Vittori,Thelma Reymundo-Juarez,03/18," $ 400 "
11/03/18,Maria Eugenia Vittori,Rodolfo Oscar Juarez Lertora,03/18," $ 400 "
11/03/18,Maria Eugenia Vittori,Thelma Reymundo-Juarez,04/18," $ 400 "
11/03/18,Maria Eugenia Vittori,Rodolfo Oscar Juarez Lertora,04/18," $ 400 "
20/03/18,Maria Eugenia Vittori,Lidia Cristina Segura,03/18," $ 350 "
20/03/18,Maria Eugenia Vittori,Solange Herrera,03/18," $ 300 "
22/03/18,Jose Luis Miranda,Pablo Fernandez,02/18," $ 200 "
22/03/18,Jose Luis Miranda,Pablo Fernandez,03/18," $ 200 "
22/03/18,Jose Luis Miranda,Nicolás Baranowski,01/18," $ 300 "
22/03/18,Jose Luis Miranda,Nicolás Baranowski,02/18," $ 300 "
22/03/18,Jose Luis Miranda,Nicolás Baranowski,03/18," $ 400 "
22/03/18,Jose Luis Miranda,Daniel Santiago Dominguez,03/18," $ 350 "
22/03/18,Jose Luis Miranda,Pedro Calderon,03/18," $ 400 "
22/03/18,Jose Luis Miranda,Cynthia Fisdel,01/18," $ 300 "
22/03/18,Jose Luis Miranda,Cynthia Fisdel,02/18," $ 300 "
22/03/18,Jose Luis Miranda,Cynthia Fisdel,03/18," $ 300 "
22/03/18,Jose Luis Miranda,Susana Maria Grillo,03/18," $ 500 "
22/03/18,Jose Luis Miranda,Alejandro Drandich,01/18," $ 350 "
22/03/18,Jose Luis Miranda,Alejandro Drandich,02/18," $ 350 "
22/03/18,Jose Luis Miranda,Alejandro Drandich,03/18," $ 350 "
22/03/18,Jose Luis Miranda,Alberto Esteban Garcia,03/18," $ 400 "
22/03/18,Jose Luis Miranda,Stina  Satz,03/18," $ 400 "
22/03/18,Jose Luis Miranda,Fernando Liska,03/18," $ 500 "
31/03/18,Jose Luis Miranda,Gustavo Bruno,03/18," $ 400 "
22/03/18,Martin Ubaldo Baez,Corinne Figueroa,03/18," $ 300 "
22/03/18,Martin Ubaldo Baez,Corinne Figueroa,04/18," $ 300 "
22/03/18,Martin Ubaldo Baez,Corinne Figueroa,05/18," $ 400 "
13/03/18,Néstor Jorge Avella,Favio Hernán Cuadrelli,03/18," $ 300 "
28/03/18,Néstor Jorge Avella,Mayra Serrudo,03/18," $ 500 "
28/03/18,Néstor Jorge Avella,Néstor Jorge Avella,04/18," $ 500 "
31/03/18,Néstor Jorge Avella,Ema Formiconi,04/18," $ 400 "
31/03/18,Néstor Jorge Avella,Mario Juan Martínez,04/18," $ 400 "
31/03/18,Daniela Yastrubni,Daniela Yastrubni,04/18," $ 200 "
31/03/18,Daniela Yastrubni,Mario Carlos Basile,04/18," $ 400 "
01/03/18,Cecilia Ines Frontini,Cecilia Ines Frontini,03/18," $ 500 "
01/03/18,Carina Mariana Fichera,Claudia Alejandra Alvarez ,03/18," $ 400 "
01/03/18,Carina Mariana Fichera,Omar Abraham,03/18," $ 350 "
01/03/18,Carina Mariana Fichera,Pina  Greco,03/18," $ 500 "
01/03/18,Carina Mariana Fichera,Juan José Pescio,03/18," $ 500 "
01/03/18,Carina Mariana Fichera,Victor  Piccinini,03/18," $ 500 "
01/03/18,Carina Mariana Fichera,Marcela Browne,03/18," $ 500 "
01/03/18,Adriana Alicia Ocampo,Adriana Alicia Ocampo,04/18," $ 350 "
01/03/18,Carina Mariana Fichera,Dorval Rivero,01/18," $ 500 "
01/03/18,Carina Mariana Fichera,Dorval Rivero,02/18," $ 500 "
01/03/18,Carina Mariana Fichera,Dorval Rivero,03/18," $ 500 "
01/03/18,Carina Mariana Fichera,Dorval Rivero,04/18," $ 500 "
01/03/18,Carina Mariana Fichera,Rene Walter Lema,03/18," $ 400 "
01/03/18,Carina Mariana Fichera,Silvia  Goyeneche,03/18," $ 400 "
01/03/18,Carina Mariana Fichera,David Parentti,03/18," $ 500 "
01/03/18,Carina Mariana Fichera,David Parentti,04/18," $ 500 "
01/03/18,Carina Mariana Fichera,Fabian Scorpino,01/18," $ 400 "
01/03/18,Carina Mariana Fichera,Fabian Scorpino,02/18," $ 400 "
01/03/18,Carina Mariana Fichera,Fabian Scorpino,03/18," $ 400 "
01/03/18,Carina Mariana Fichera,Carina Mariana Fichera,03/18," $ 350 "
01/03/18,Carina Mariana Fichera,Armengol Pedro Espiritu,03/18," $ 400 "
01/03/18,Adriana Alicia Ocampo,Hernan Gonzalez,03/18," $ 400 "
01/03/18,Jano Arrechea,Jano Arrechea,04/18," $ 250 "
01/03/18,Laura Abril Campo Cordero,Laura Abril Campo Cordero,03/18," $ 200 "
01/03/18,Carina Mariana Fichera,Daniela Hansen,03/18," $ 500 "
01/03/18,Carina Mariana Fichera,Ignacio Miguel Arruez,03/18," $ 400 "
01/03/18,Carina Mariana Fichera,Ignacio Miguel Arruez,02/18," $ 400 "
01/03/18,Carina Mariana Fichera,Ignacio Miguel Arruez,01/18," $ 400 "
01/03/18,Carina Mariana Fichera,Ignacio Miguel Arruez,12/17," $ 400 "
01/03/18,Carina Mariana Fichera,Ignacio Miguel Arruez,11/17," $ 400 "
01/03/18,Carina Mariana Fichera,Ignacio Miguel Arruez,10/17," $ 400 "
01/03/18,Carina Mariana Fichera,Ignacio Miguel Arruez,09/17," $ 400 "
01/03/18,Carina Mariana Fichera,Ignacio Miguel Arruez,08/17," $ 400 "
01/03/18,Carina Mariana Fichera,Ignacio Miguel Arruez,07/17," $ 400 "
01/03/18,Carina Mariana Fichera,Ignacio Miguel Arruez,06/17," $ 400 "
01/03/18,Blanca Leal,Americo Huespe,03/18," $ 350 "
01/03/18,Carina Mariana Fichera,Marcelo Repetto,04/18," $ 500 "
01/03/18,Carina Mariana Fichera,Marcelo Repetto,05/18," $ 500 "
01/03/18,Carina Mariana Fichera,Marcelo Repetto,06/18," $ 500 "
01/03/18,Carina Mariana Fichera,Teresa Lopez,04/18," $ 500 "
01/03/18,Carina Mariana Fichera,Teresa Lopez,05/18," $ 500 "
01/03/18,Carina Mariana Fichera,Teresa Lopez,06/18," $ 500 "
01/03/18,Carina Mariana Fichera,Daniel Tagliafico,03/18," $ 400 "
03/03/18,Gabriel M. Drab,Carlos Santos,03/18," $ 500 "
03/03/18,Gabriel M. Drab,Carlos Santos,02/18," $ 500 "
03/03/18,Gabriel M. Drab,Carlos Santos,01/18," $ 500 "
03/03/18,Gabriel M. Drab,Carlos Santos,04/18," $ 500 "
03/03/18,Gabriel M. Drab,Carlos Santos,05/18," $ 500 "
03/03/18,Gabriel M. Drab,Carlos Santos,06/18," $ 500 "
04/03/18,Gabriel M. Drab,Mariana Lucia Pereyra,03/18," $ 1.000 "
12/03/18,Gabriel M. Drab,Mariano Francisco Sirianni,03/18," $ 500 "
