Maestros aplicados de Parque La Reja: 27-07-2018 (EN AZUL ESTAN LOS MIEMBROS DEL GRUPO DE FACEBOOK),,,,,,
,,,,,,
Orden,Apellido,Nombre,Mail,Alias,Pres.,Aporte
1,Abelenda Fratini,Ana Laura,anahumanista@gmail.com,Ana Laura Abelenda Fratini <anahumanista@gmail.com>,,
2,Abraham,Adrian,adrian_abraham@yahoo.com.ar,Adrian Abraham <adrian_abraham@yahoo.com.ar>,,
3,Abraham,Omar,subnocte@yahoo.com.ar,Omar Abraham <subnocte@yahoo.com.ar>,,
4,Abregu,Carlos,carlosabregu2002@yahoo.com.ar,Carlos Abregu <carlosabregu2002@yahoo.com.ar>,,
5,Acevedo,Carlos,acevedocarlo@yahoo.com.ar,Carlos Acevedo <acevedocarlo@yahoo.com.ar>,,
6,Acosta Castillo,Mauricio,mauricie@hotmail.com,Mauricio Acosta Castillo <mauricie@hotmail.com>,,
7,Agosin,Natalia,agosinnatalia@hotmail.com,Natalia Agosin <agosinnatalia@hotmail.com>,,
8,Agustoni,Mariano,marianoagustoni@gmail.com,Mariano Agustoni <marianoagustoni@gmail.com>,,
9,Aiassa,Ruben,raiassa@yahoo.com.ar,Ruben Aiassa <raiassa@yahoo.com.ar>,,
10,Aiello,Roberto,rb.aiello@gmail.com,Roberto Aiello <rb.aiello@gmail.com>,,
11,Aiello,Tomas,aiello.tomas@gmail.com,Tomas Aiello <aiello.tomas@gmail.com>,,
12,Alem Peralta,Oscar,oscar.alem@gmail.com,Oscar Alem Peralta <oscar.alem@gmail.com>,,
13,Ales,Pablo,alespablo@gmail.com,Pablo Ales <alespablo@gmail.com>,,
14,Algarañaz Alegre,Beatriz,charitoo@live.com.ar,Beatriz Algarañaz Alegre <charitoo@live.com.ar>,,
16,Altmark,Shirli,,Shirli Altmark <>,,
17,Alvarez,Carlos,carlos.epsilon50@gmail.com,Carlos Alvarez <carlos.epsilon50@gmail.com>,,
18,Alvarez,Natalia,natalia.humanista@gmail.com,Natalia Alvarez <natalia.humanista@gmail.com>,,
19,Alvarez,Nestor,gallegoalvarez33@hotmail.com,Nestor Alvarez <gallegoalvarez33@hotmail.com>,,
20,Alvarez,Raul,golan146@fibertel.com.ar,Raul Alvarez <golan146@fibertel.com.ar>,,
21,Alvarez,Ricardo,,Ricardo Alvarez <>,,
22,Alvarez ,Claudia,aclaudiaalejandra@gmail.com,Claudia Alvarez  <aclaudiaalejandra@gmail.com>,,
23,Alzaga,Mariana,marianaalzaga@gmail.com,Mariana Alzaga <marianaalzaga@gmail.com>,,
24,Ambrosio,Liliana,lilianaambrosio@arnet.com.ar,Liliana Ambrosio <lilianaambrosio@arnet.com.ar>,,
25,Ammann,Luis,luis.ammann@gmail.com,Luis Ammann <luis.ammann@gmail.com>,,
26,Amondarian,Alejandro,,Alejandro Amondarian <>,,
27,Amuy,Javier,javier1410@gmail.com,Javier Amuy <javier1410@gmail.com>,,
28,Angel Ribeiro,Ana Maria,amar.anita@hotmail.com,Ana Maria Angel Ribeiro <amar.anita@hotmail.com>,,
29,Aquino,Benjamin,lulospawn@gmail.com,Benjamin Aquino <lulospawn@gmail.com>,,
30,Aquino,Julio,juliobaquino@gmail.com,Julio Aquino <juliobaquino@gmail.com>,,
31,Araujo,Viviana,viviaraujo11@yahoo.com.ar,Viviana Araujo <viviaraujo11@yahoo.com.ar>,,
32,Araya,Ana Maria,arayadiez@gmail.com,Ana Maria Araya <arayadiez@gmail.com>,,
33,Arce,Alejandro,,Alejandro Arce <>,,
35,Argimon,Pia,mensajera@gmail.com,Pia Argimon <mensajera@gmail.com>,,
36,Arias,Carlos,,Carlos Arias <>,,
37,Arias,Damian,damianhumanista1@gmail.com,Damian Arias <damianhumanista1@gmail.com>,,
38,Arias,Juan Carlos,carlos81052@yahoo.com.ar,Juan Carlos Arias <carlos81052@yahoo.com.ar>,,
39,Arrechea,Alejandro,janoarrechea@gmail.com,Alejandro Arrechea <janoarrechea@gmail.com>,,
40,Arroyo,Ana Laura,anitapyp@hotmail.com,Ana Laura Arroyo <anitapyp@hotmail.com>,,
41,Arruez,Ignacio,nachoarruez@gmail.com,Ignacio Arruez <nachoarruez@gmail.com>,,
42,Ascanelli,Adriana,a.ascanelli@gmail.com,Adriana Ascanelli <a.ascanelli@gmail.com>,,
43,Astete,Diana,dianaastete@gmail.com,Diana Astete <dianaastete@gmail.com>,,
44,Avella,Nestor,njavella@yahoo.com.ar,Nestor Avella <njavella@yahoo.com.ar>,,
45,Ayarragaray,Lala,layarragaray@hotmail.com,Lala Ayarragaray <layarragaray@hotmail.com>,,
46,Ayax,Leda,leda.mensajera@gmail.com,Leda Ayax <leda.mensajera@gmail.com>,,
47,Aylan,Marta,aylan.lacomunidad@gmail.com,Marta Aylan <aylan.lacomunidad@gmail.com>,,
48,Azpiroz,Mabel,mabyaz@yahoo.com.ar,Mabel Azpiroz <mabyaz@yahoo.com.ar>,,
49,Azpiroz,Oscar,trenqueos@yahoo.com.ar,Oscar Azpiroz <trenqueos@yahoo.com.ar>,,
50,Bacigalupo,Ernesto,,Ernesto Bacigalupo <>,,
51,Baez,Martin,martinubaldo22@yahoo.com.ar,Martin Baez <martinubaldo22@yahoo.com.ar>,,
53,Balbontin Urtubia,Maria Elena,melena.balbontin@gmail.com,Maria Elena Balbontin Urtubia <melena.balbontin@gmail.com>,,
54,Balbuena,Gabriela,gabrielairisb@hotmail.com,Gabriela Balbuena <gabrielairisb@hotmail.com>,,
55,Balea,Claudia,ccbalea@gmail.com,Claudia Balea <ccbalea@gmail.com>,,
56,Balivo,Giselle,gisellebalivo@gmail.com,Giselle Balivo <gisellebalivo@gmail.com>,,
57,Baños,Hector,dragonplaneador@yahoo.com.ar,Hector Baños <dragonplaneador@yahoo.com.ar>,,
59,Barbagallo,Claudia,claudiabarbagallo@gmail.com,Claudia Barbagallo <claudiabarbagallo@gmail.com>,,
60,Barberena,Anabella,anabela.barberena@gmail.com,Anabella Barberena <anabela.barberena@gmail.com>,,
61,Barbi,Nieves,barbi.nieves@gmail.com,Nieves Barbi <barbi.nieves@gmail.com>,,
62,Barragan,Juana,jubarragan@yahoo.com.ar,Juana Barragan <jubarragan@yahoo.com.ar>,,
63,Barrios,Julio,juliobarrios2002@yahoo.com.ar,Julio Barrios <juliobarrios2002@yahoo.com.ar>,,
64,Bartoletti,Leandro,leandro_bartoletti@yahoo.com.ar,Leandro Bartoletti <leandro_bartoletti@yahoo.com.ar>,,
65,Basile,Mario,mario_basile@yahoo.com,Mario Basile <mario_basile@yahoo.com>,,
66,Bauchet,Micaela,,Micaela Bauchet <>,,
67,Belizan,Mario,mariobelizan@yahoo.com.ar,Mario Belizan <mariobelizan@yahoo.com.ar>,,
68,Belossi,Kari,karybelossi@gmail.com,Kari Belossi <karybelossi@gmail.com>,,
70,Benitez,Cecilia,cebensa@gmail.com,Cecilia Benitez <cebensa@gmail.com>,,
71,Bercu,Lucila,lucilab11@gmail.com,Lucila Bercu <lucilab11@gmail.com>,,
72,Berdeal,Alberto,jalbertoberdeal@yahoo.com.ar,Alberto Berdeal <jalbertoberdeal@yahoo.com.ar>,,
73,Bernardini,Tony,tonyfikante@yahoo.com,Tony Bernardini <tonyfikante@yahoo.com>,,
74,Bertoni,Paula,paulabertoni@yahoo.com,Paula Bertoni <paulabertoni@yahoo.com>,,
75,Bes,German,fihuman@yahoo.com.ar,German Bes <fihuman@yahoo.com.ar>,,
76,Blanco,Leonardo,flordecontacto@gmail.com,Leonardo Blanco <flordecontacto@gmail.com>,,
77,Blanco,Marta,marbelnic@yahoo.com.ar,Marta Blanco <marbelnic@yahoo.com.ar>,,
79,Blas,Luciana ,,Luciana  Blas <>,,
80,Boggiano,Luisa,luisaboggi@yahoo.com.ar,Luisa Boggiano <luisaboggi@yahoo.com.ar>,,
81,Boix,Ricardo,boixricardo@gmail.com,Ricardo Boix <boixricardo@gmail.com>,,
83,Bretta,Cristina,cristinabretta@gmail.com,Cristina Bretta <cristinabretta@gmail.com>,,
84,Briganti,Roberto,rober.humanista@gmail.com,Roberto Briganti <rober.humanista@gmail.com>,,
85,Broner,Eva,eva.broner@gmail.com,Eva Broner <eva.broner@gmail.com>,,
86,Browne,Marcela,marcelabrowne@yahoo.com,Marcela Browne <marcelabrowne@yahoo.com>,,
87,Bruno,Gustavo,gustavo.bruno@fibertel.com.ar,Gustavo Bruno <gustavo.bruno@fibertel.com.ar>,,
88,Bruno,Renato,,Renato Bruno <>,,
89,Bucci,Ethel,,Ethel Bucci <>,,
90,Bustos,Daniel,danielbrm1@gmail.com,Daniel Bustos <danielbrm1@gmail.com>,,
91,Bustos,Ivan,ivanezequielbustos@gmail.com,Ivan Bustos <ivanezequielbustos@gmail.com>,,
92,Cabral,Sergio,sergiocabral69@yahoo.com.ar,Sergio Cabral <sergiocabral69@yahoo.com.ar>,,
93,Cabrera,Diana,dianamiriamc@hotmail.com,Diana Cabrera <dianamiriamc@hotmail.com>,,
94,Caceres,Gladys,gladyscaceres275@gmail.com,Gladys Caceres <gladyscaceres275@gmail.com>,,
95,Cachela,Rodolfo,cachela@gmail.com,Rodolfo Cachela <cachela@gmail.com>,,
96,Caldas,Daniela ,danido692010@gmail.com,Daniela  Caldas <danido692010@gmail.com>,,
97,Caldas,Sergio,sergiowaltercaldas@hotmail.com,Sergio Caldas <sergiowaltercaldas@hotmail.com>,,
98,Calderon,Ammillan,sttyle.a@hotmail.com,Ammillan Calderon <sttyle.a@hotmail.com>,,
99,Calderon,Pedro,pedrocalderon51@gmail.com,Pedro Calderon <pedrocalderon51@gmail.com>,,
100,Calvo,Guillermo,lordfebre@gmail.com,Guillermo Calvo <lordfebre@gmail.com>,,
101,Camillieri,Alexis,camillieri.alexis@gmail.com,Alexis Camillieri <camillieri.alexis@gmail.com>,,
102,Camillieri,Nestor,camilli@gmail.com,Nestor Camillieri <camilli@gmail.com>,,
103,Cammarata,Lorena,chicadeciber@hotmail.com,Lorena Cammarata <chicadeciber@hotmail.com>,,
104,Campo Cordero,Laura Abril,laura.abril@redhumanista.org,Laura Abril Campo Cordero <laura.abril@redhumanista.org>,,
105,Campos,Marcelo,marcelo1904@hotmail.com,Marcelo Campos <marcelo1904@hotmail.com>,,
106,Campos,Maria Celeste,maricele23@gmail.com,Maria Celeste Campos <maricele23@gmail.com>,,
107,Campos,Maria de los Angeles,angelescampos2009@gmail.com,Maria de los Angeles Campos <angelescampos2009@gmail.com>,,
108,Canelo,Marisa,marisacanelo@yahoo.com.ar,Marisa Canelo <marisacanelo@yahoo.com.ar>,,
109,Cano,Adriana,,Adriana Cano <>,,
110,Cano,Viviana,cano.vivi@yahoo.com.ar,Viviana Cano <cano.vivi@yahoo.com.ar>,,
111,Cantarell,Julia,patricia_cantarell@yahoo.com.ar,Julia Cantarell <patricia_cantarell@yahoo.com.ar>,,
112,Cappelli,Juan Jose,jjcappelli@gmail.com,Juan Jose Cappelli <jjcappelli@gmail.com>,,
114,Caprara,Nestor,nestorcaprara@hotmail.com,Nestor Caprara <nestorcaprara@hotmail.com>,,
115,Caprara,Sandra,sandra_caprara@yahoo.com.ar,Sandra Caprara <sandra_caprara@yahoo.com.ar>,,
116,Cares,Ruth,cares_r@hotmail.com,Ruth Cares <cares_r@hotmail.com>,,
117,Caresana,Amelia,acaresana@gmail.com,Amelia Caresana <acaresana@gmail.com>,,
118,Carniglia,Paola,,Paola Carniglia <>,,
119,Caro,Juan Armando,juancaro63@gmail.com,Juan Armando Caro <juancaro63@gmail.com>,,
120,Carosella,Sonia,soniacarosella@yahoo.com.ar,Sonia Carosella <soniacarosella@yahoo.com.ar>,,
121,Caruso,Mara,maisabe@hotmail.com,Mara Caruso <maisabe@hotmail.com>,,
122,Casal,Delia,diliaelisacasal@hotmail.com,Delia Casal <diliaelisacasal@hotmail.com>,,
123,Casalis,Beatriz,beacasalis@yahoo.com.ar,Beatriz Casalis <beacasalis@yahoo.com.ar>,,
124,Casares,Mauro,mauro.casares@gmail.com,Mauro Casares <mauro.casares@gmail.com>,,
125,Casco,Lorena,lorenacasco79@gmail.com,Lorena Casco <lorenacasco79@gmail.com>,,
126,Cassiani,Graciela,gcassiani@yahoo.com.ar,Graciela Cassiani <gcassiani@yahoo.com.ar>,,
127,Castillo,Estanislao,stanisks@gmail.com,Estanislao Castillo <stanisks@gmail.com>,,
130,Castro,Salvador,salvaalf.castro@gmail.com,Salvador Castro <salvaalf.castro@gmail.com>,,
131,Catarineu,Lucero,lucerobarna@gmail.com,Lucero Catarineu <lucerobarna@gmail.com>,,
132,Catarino,Mariana,79.mariana@gmail.com,Mariana Catarino <79.mariana@gmail.com>,,
133,Cavicchia,Juan,,Juan Cavicchia <>,,
134,Ceballos,Irene,mariaireneceballos256@gmail.com,Irene Ceballos <mariaireneceballos256@gmail.com>,,
135,Ceballos,Oscar,seniorho2002@yahoo.com,Oscar Ceballos <seniorho2002@yahoo.com>,,
136,Cejas,Rodrigo,,Rodrigo Cejas <>,,
137,Centurion Espinola,Patricia,patric@redhumanista.org,Patricia Centurion Espinola <patric@redhumanista.org>,,
138,Cevey,Agata,agatacevey@gmail.com,Agata Cevey <agatacevey@gmail.com>,,
139,Chaile,Joaquin,sidious_20@yahoo.com.ar,Joaquin Chaile <sidious_20@yahoo.com.ar>,,
140,Chalabe,Gisela,gisechalabe@hotmail.com,Gisela Chalabe <gisechalabe@hotmail.com>,,
141,Charra,Gustavo,charragustavo@hotmail.com,Gustavo Charra <charragustavo@hotmail.com>,,
143,Chavez,Alejandro,chavezalejandro@yahoo.com.ar,Alejandro Chavez <chavezalejandro@yahoo.com.ar>,,
144,Chialina,Susana,susanachialina4@gmail.com,Susana Chialina <susanachialina4@gmail.com>,,
145,Chicahuala,Jorge Omar,chicahuala@gmail.com,Jorge Omar Chicahuala <chicahuala@gmail.com>,,
146,Chicahuala,Mario,mach_tau@yahoo.com.ar,Mario Chicahuala <mach_tau@yahoo.com.ar>,,
147,Ciancio,Carlos,carlosciancio@gmail.com,Carlos Ciancio <carlosciancio@gmail.com>,,
148,Cichy ,Liliana,liliana-cichy@speedy.com.ar,Liliana Cichy  <liliana-cichy@speedy.com.ar>,,
149,Cisneros,Yamil,,Yamil Cisneros <>,,
150,Clutterbuck,Melanie,mellyclutter@gmail.com,Melanie Clutterbuck <mellyclutter@gmail.com>,,
151,Cohen,Oscar,oscar_cohen@hotmail.com,Oscar Cohen <oscar_cohen@hotmail.com>,,
152,Condori,Sandra,pausini_sandy@yahoo.com.ar,Sandra Condori <pausini_sandy@yahoo.com.ar>,,
153,Constantini,Jose Maria,josemariacostantini@gmail.com,Jose Maria Constantini <josemariacostantini@gmail.com>,,
154,Contartese,Pablo ,pablocontartese@hotmail.com,Pablo  Contartese <pablocontartese@hotmail.com>,,
155,Contreras,Fernando,fercon@gmail.com,Fernando Contreras <fercon@gmail.com>,,
156,Coronel,Norma,normabc@gmail.com,Norma Coronel <normabc@gmail.com>,,
157,Coronel Vega,Victor,argotbienesmuebles@yahoo.com.ar,Victor Coronel Vega <argotbienesmuebles@yahoo.com.ar>,,
158,Correa,Silvina,sylvinacorrea@gmail.com,Silvina Correa <sylvinacorrea@gmail.com>,,
159,Corso,Susana,corsosusana@hotmail.com,Susana Corso <corsosusana@hotmail.com>,,
160,Cortes,Marina ,marina_cortes14@hotmail.com,Marina  Cortes <marina_cortes14@hotmail.com>,,
161,Crego,Angel,angelcrego@gmail.com,Angel Crego <angelcrego@gmail.com>,,
162,Croce,Helena,sacudi.el.mundo@gmail.com,Helena Croce <sacudi.el.mundo@gmail.com>,,
163,Croce,Nicolas,n.a.croce@gmail.com,Nicolas Croce <n.a.croce@gmail.com>,,
164,Cruzado,Norma,normacruzado@gmail.com,Norma Cruzado <normacruzado@gmail.com>,,
165,Cuadrelli,Favio,faviocuadrelli@gmail.com,Favio Cuadrelli <faviocuadrelli@gmail.com>,,
166,Cuellar,Milton,,Milton Cuellar <>,,
167,Cufre,Lola,,Lola Cufre <>,,
168,Culotta,Agustina,calamityagus@gmail.com,Agustina Culotta <calamityagus@gmail.com>,,
169,D'Alesio,Jorge,dalesioar@gmail.com,Jorge D'Alesio <dalesioar@gmail.com>,,
170,Dal Monte,Carolina,carohumanista@gmail.com,Carolina Dal Monte <carohumanista@gmail.com>,,
171,Dartiguepeyrou,Marcela,lacomunidad.marcela@gmail.com,Marcela Dartiguepeyrou <lacomunidad.marcela@gmail.com>,,
173,Daulte,Miguel,daulte@yahoo.es,Miguel Daulte <daulte@yahoo.es>,,
175,De Ines,Enrique,enriquedeines@yahoo.com.ar,Enrique De Ines <enriquedeines@yahoo.com.ar>,,
176,De la Barra,Nakens,nakensdelabarra@hotmail.com,Nakens De la Barra <nakensdelabarra@hotmail.com>,,
177,De Lafore,Alicia,delaforealicia@yahoo.com.ar,Alicia De Lafore <delaforealicia@yahoo.com.ar>,,
178,De Luca,Carlos,carlosndeluca@yahoo.com.ar,Carlos De Luca <carlosndeluca@yahoo.com.ar>,,
179,De Natale,Angel,caricias_deangel@yahoo.com.ar,Angel De Natale <caricias_deangel@yahoo.com.ar>,,
180,Debandi,Graciela,gra_d@ciudad.com.ar,Graciela Debandi <gra_d@ciudad.com.ar>,,
181,Del Valle,Gabriel,ptoplano_32@hotmail.com,Gabriel Del Valle <ptoplano_32@hotmail.com>,,
182,Delbon,Daniel,danidelbon@hotmail.com,Daniel Delbon <danidelbon@hotmail.com>,,
183,Delbon,Liliana,,Liliana Delbon <>,,
184,Delgado,Gladis,gladisdelgado@yahoo.com.ar,Gladis Delgado <gladisdelgado@yahoo.com.ar>,,
185,Delor,Aldo Alejandro,aledelor@yahoo.com.ar,Aldo Alejandro Delor <aledelor@yahoo.com.ar>,,
186,Delvenne,Esther,estherdelvenne@gmail.com,Esther Delvenne <estherdelvenne@gmail.com>,,
187,Demestri,Gaston,gastondemestri@gmail.com,Gaston Demestri <gastondemestri@gmail.com>,,
188,Denesiuk,Carmela,carmydene@gmail.com,Carmela Denesiuk <carmydene@gmail.com>,,
189,Denza,Adrian,adriandenza@gmail.com,Adrian Denza <adriandenza@gmail.com>,,
190,Depieri,Mario,,Mario Depieri <>,,
191,Di Ciancia,Natalia ,natidiciancia@hotmail.com,Natalia  Di Ciancia <natidiciancia@hotmail.com>,,
192,Di Giovanni,Antonella,antonelladigio@gmail.com,Antonella Di Giovanni <antonelladigio@gmail.com>,,
193,Di Leo,Pablo,pabloc79@gmail.com,Pablo Di Leo <pabloc79@gmail.com>,,
194,Diaz,Laura ,100prelaura@gmail.com,Laura  Diaz <100prelaura@gmail.com>,,
195,Diaz,Makarena ,lamakarena2002@yahoo.com.ar,Makarena  Diaz <lamakarena2002@yahoo.com.ar>,,
196,Diaz,Norma,1lacazadora@gmail.com,Norma Diaz <1lacazadora@gmail.com>,,
197,Diaz,Roxana,roxanadiazluna@gmail.com,Roxana Diaz <roxanadiazluna@gmail.com>,,
198,Diaz Gonzalez,Nilda,nildad68@yahoo.com.ar,Nilda Diaz Gonzalez <nildad68@yahoo.com.ar>,,
200,Domenichetti,Gaston ,,Gaston  Domenichetti <>,,
201,Dominguez,Daniel,okfuturo@yahoo.com.ar,Daniel Dominguez <okfuturo@yahoo.com.ar>,,
202,Dominguez,Ezequiel,ezeamaru@gmail.com,Ezequiel Dominguez <ezeamaru@gmail.com>,,
203,Dominguez,Maria,maruchele@yahoo.com.ar,Maria Dominguez <maruchele@yahoo.com.ar>,,
204,Dorado,Diego,diegodorado@gmail.com,Diego Dorado <diegodorado@gmail.com>,,
205,Dostal,Jorge,jorgedostal@gmail.com,Jorge Dostal <jorgedostal@gmail.com>,,
206,Drab,Gabriel,gaboelhumanista@gmail.com,Gabriel Drab <gaboelhumanista@gmail.com>,,
207,Drandich,Alejandro,adrandich2@gmail.com,Alejandro Drandich <adrandich2@gmail.com>,,
208,Druetta,Alberto,alberto.druetta@gmail.com,Alberto Druetta <alberto.druetta@gmail.com>,,
209,Ducau,Emilio,emilioducau@gmail.com,Emilio Ducau <emilioducau@gmail.com>,,
210,Eceiza,Maria Laura,laura@redhumanista.org,Maria Laura Eceiza <laura@redhumanista.org>,,
211,Espiritu,Armengol,armengolespiritu@gmail.com,Armengol Espiritu <armengolespiritu@gmail.com>,,
213,Fabiano,Fernando,fernandofabiano@hotmail.com,Fernando Fabiano <fernandofabiano@hotmail.com>,,
214,Falabella,Alberto,betofa@yahoo.com.ar,Alberto Falabella <betofa@yahoo.com.ar>,,
215,Fanjul,Lidia,fanjul.lidia51@gmail.com,Lidia Fanjul <fanjul.lidia51@gmail.com>,,
216,Fantini,Maria Monica,nicafantini@hotmail.com,Maria Monica Fantini <nicafantini@hotmail.com>,,
217,Feldman,Maria Alejandra,alefeles@yahoo.es,Maria Alejandra Feldman <alefeles@yahoo.es>,,
218,Fernandez,Betty,bettyenmarcha@gmail.com,Betty Fernandez <bettyenmarcha@gmail.com>,,
219,Fernandez,Enrique,elvitral2004@yahoo.com.ar,Enrique Fernandez <elvitral2004@yahoo.com.ar>,,
220,Fernandez,Jonatan,jonatanhumanista@live.com.ar,Jonatan Fernandez <jonatanhumanista@live.com.ar>,,
221,Fernandez,Juan Carlos,el_berty@hotmail.com,Juan Carlos Fernandez <el_berty@hotmail.com>,,
222,Fernandez,Lila,lilafernandezventas@yahoo.com.ar,Lila Fernandez <lilafernandezventas@yahoo.com.ar>,,
223,Fernandez,Mariela,marielafernandez75@yahoo.com.ar,Mariela Fernandez <marielafernandez75@yahoo.com.ar>,,
224,Fernandez,Pablo,fz.pablo@gmail.com,Pablo Fernandez <fz.pablo@gmail.com>,,
225,Fernandez,Sergio,sergitofernandez@hotmail.com,Sergio Fernandez <sergitofernandez@hotmail.com>,,
226,Fernandez Triches,Maria Celina,mfernandeztriches@yahoo.com.ar,Maria Celina Fernandez Triches <mfernandeztriches@yahoo.com.ar>,,
227,Ferrer,Alejandro,alejandroferrer87@gmail.com,Alejandro Ferrer <alejandroferrer87@gmail.com>,,
228,Ferrer,Tamara,thamm.ferrer@gmail.com,Tamara Ferrer <thamm.ferrer@gmail.com>,,
229,Ferreyra,Esther,,Esther Ferreyra <>,,
230,Fichera,Carina,carinafichera@gmail.com,Carina Fichera <carinafichera@gmail.com>,,
232,Figueroa,Corinne,figueroa.corinne@gmail.com,Corinne Figueroa <figueroa.corinne@gmail.com>,,
233,Filipic Masso,Nicolas,nicolasfilipicmasso@gmail.com,Nicolas Filipic Masso <nicolasfilipicmasso@gmail.com>,,
234,Filoni,Fernando,fernandofiloni@yahoo.es,Fernando Filoni <fernandofiloni@yahoo.es>,,
235,Fisdel,Cynthia,cynthia_fisdel@yahoo.com.ar,Cynthia Fisdel <cynthia_fisdel@yahoo.com.ar>,,
237,Flores ,Norma,normamiluna@gmail.com,Norma Flores  <normamiluna@gmail.com>,,
238,Floridia,Ernesto,,Ernesto Floridia <>,,
239,Formiconi,Ema,emaformiconi@yahoo.com.ar,Ema Formiconi <emaformiconi@yahoo.com.ar>,,
240,Fragueiro,Gladys,g_la_77@hotmail.com,Gladys Fragueiro <g_la_77@hotmail.com>,,
241,Frenquelli,Teresita,terefren@yahoo.com.ar,Teresita Frenquelli <terefren@yahoo.com.ar>,,
242,Frigerio,Maria Luisa,aclara2004@yahoo.com.ar,Maria Luisa Frigerio <aclara2004@yahoo.com.ar>,,
243,Frontini,Cecilia,cecilia.frontini@gmail.com,Cecilia Frontini <cecilia.frontini@gmail.com>,,
245,Gaitan,Lorena,,Lorena Gaitan <>,,
246,Gaitàn,Mara,maragaitan@yahoo.com.ar,Mara Gaitàn <maragaitan@yahoo.com.ar>,,
247,Galan,Silvia,elizabethgalan21@gmail.com,Silvia Galan <elizabethgalan21@gmail.com>,,
248,Galarza,Julio,galarzajc@hotmail.com,Julio Galarza <galarzajc@hotmail.com>,,
249,Gangale,Ezio,eziogangale@yahoo.it,Ezio Gangale <eziogangale@yahoo.it>,,
250,Garay,Elias,estebanelias2@yahoo.com.ar,Elias Garay <estebanelias2@yahoo.com.ar>,,
251,Garcia,Alberto,alberto.e.garcia@hotmail.com,Alberto Garcia <alberto.e.garcia@hotmail.com>,,
252,Garcia,Ruben,rbngrc2712@hotmail.com,Ruben Garcia <rbngrc2712@hotmail.com>,,
253,Garcia Rufinelli,Diego,diegoruffi@gmail.com,Diego Garcia Rufinelli <diegoruffi@gmail.com>,,
255,Garrido,Gloria,,Gloria Garrido <>,,
256,Gastaldi,Graciela,gracegastaldi@live.com.ar,Graciela Gastaldi <gracegastaldi@live.com.ar>,,
257,Gatica,Mirta,mirnorg@yahoo.com.ar,Mirta Gatica <mirnorg@yahoo.com.ar>,,
258,Gatti,Maria Ines,gattimariaines@hotmail.com,Maria Ines Gatti <gattimariaines@hotmail.com>,,
259,Gavilan,Eliana,elianagavilan22@hotmail.com,Eliana Gavilan <elianagavilan22@hotmail.com>,,
260,Gentili,Hernan,herggentili@hotmail.com,Hernan Gentili <herggentili@hotmail.com>,,
261,Ghergo,Corina,,Corina Ghergo <>,,
262,Gimenez,Iris,fannygimenez35@yahoo.com.ar,Iris Gimenez <fannygimenez35@yahoo.com.ar>,,
263,Gimenez,Sabrina,,Sabrina Gimenez <>,,
264,Gimeno,Ernesto,ernestogimeno@gmail.com,Ernesto Gimeno <ernestogimeno@gmail.com>,,
265,Giulidoro,Miguel,miangi66@yahoo.com.ar,Miguel Giulidoro <miangi66@yahoo.com.ar>,,
266,Gomez,Ana Maria,anamago16@yahoo.com.ar,Ana Maria Gomez <anamago16@yahoo.com.ar>,,
267,Gomez,Gustavo ,,Gustavo  Gomez <>,,
268,Gomez,Lucrecia,luly_go32@hotmail.com,Lucrecia Gomez <luly_go32@hotmail.com>,,
269,Gomez,Miryam,miryam.b.gomez@gmail.com,Miryam Gomez <miryam.b.gomez@gmail.com>,,
270,Gomez Ceballos,Daniela,dacegoce@hotmail.com,Daniela Gomez Ceballos <dacegoce@hotmail.com>,,
271,Gomez Libonatti,Jorge,jorgeagomezlibonatti256@gmail.com,Jorge Gomez Libonatti <jorgeagomezlibonatti256@gmail.com>,,
272,Gomez Morales,Dalila,daligomezmorales@hotmail.com,Dalila Gomez Morales <daligomezmorales@hotmail.com>,,
273,Gomiz,Miguel,miguelgomiz@gmail.com,Miguel Gomiz <miguelgomiz@gmail.com>,,
274,Gonzalez,Angel,electronica_angel_1976@yahoo.com.ar,Angel Gonzalez <electronica_angel_1976@yahoo.com.ar>,,
275,Gonzalez,Elsa,elsayolandagonzalez@yahoo.com.ar,Elsa Gonzalez <elsayolandagonzalez@yahoo.com.ar>,,
276,Gonzalez,Hernan,culturasunidas@hotmail.com,Hernan Gonzalez <culturasunidas@hotmail.com>,,
277,Gonzalez,Jorge,,Jorge Gonzalez <>,,
278,Gonzalez,Margarita,maguyhumanista@gmail.com,Margarita Gonzalez <maguyhumanista@gmail.com>,,
279,Gonzalez,Mariel,marielg66@gmail.com,Mariel Gonzalez <marielg66@gmail.com>,,
280,Gonzalez,Matias,comoeldiegodel86@hotmail.com,Matias Gonzalez <comoeldiegodel86@hotmail.com>,,
281,Gonzalez,Oscar,,Oscar Gonzalez <>,,
282,Gonzalez,Roberto,roberto-reg@hotmail.com,Roberto Gonzalez <roberto-reg@hotmail.com>,,
283,Gonzalez,Silvia,ona_gon@hotmail.com,Silvia Gonzalez <ona_gon@hotmail.com>,,
284,Gonzalez,Wilmer,wilmer8703@gmail.com,Wilmer Gonzalez <wilmer8703@gmail.com>,,
285,Gonzalez,Yessica,yessikgz@gmail.com,Yessica Gonzalez <yessikgz@gmail.com>,,
286,Gonzalez Rojo,Santiago,gonzalezrojosantiago@gmail.com,Santiago Gonzalez Rojo <gonzalezrojosantiago@gmail.com>,,
287,Gorsin,Francisco,francisco.gorsin@gmail.com,Francisco Gorsin <francisco.gorsin@gmail.com>,,
288,Goyeneche,Silvia,silviagoyeneche@yahoo.com.ar,Silvia Goyeneche <silviagoyeneche@yahoo.com.ar>,,
289,Greco,Ana Violeta,anavioletagreco@gmail.com,Ana Violeta Greco <anavioletagreco@gmail.com>,,
290,Greco,Pina,pinagreco@gmail.com,Pina Greco <pinagreco@gmail.com>,,
291,Grillo,Susana,skasu77@hotmail.com,Susana Grillo <skasu77@hotmail.com>,,
292,Grisoni,Gerardo,gerardogrisoni@gmail.com,Gerardo Grisoni <gerardogrisoni@gmail.com>,,
293,Gross Brown,Monica,mensmgb@hotmail.com,Monica Gross Brown <mensmgb@hotmail.com>,,
294,Guardado,Silvia,silviamguardado@gmail.com,Silvia Guardado <silviamguardado@gmail.com>,,
295,Guardia,Jorge,jorge_c50@yahoo.com.ar,Jorge Guardia <jorge_c50@yahoo.com.ar>,,
298,Haddad,Eduardo,eduardo.haddad@live.com,Eduardo Haddad <eduardo.haddad@live.com>,,
299,Hansen,Daniela,danielamhansen@yahoo.com.ar,Daniela Hansen <danielamhansen@yahoo.com.ar>,,
300,Haupt,Nestor,nestorhaupt@gmail.com,Nestor Haupt <nestorhaupt@gmail.com>,,
301,Hedeager,Jorge,jorge.hedeager@gmail.com,Jorge Hedeager <jorge.hedeager@gmail.com>,,
302,Herbon Browne,Micaela,mherbonbrowne@gmail.com,Micaela Herbon Browne <mherbonbrowne@gmail.com>,,
303,Herrera,Edgardo,pipoherrera@gmail.com,Edgardo Herrera <pipoherrera@gmail.com>,,
304,Herrera,Paulo,paulojavierherrera@gmail.com,Paulo Herrera <paulojavierherrera@gmail.com>,,
305,Herrera,Solange,solherrera5@yahoo.com,Solange Herrera <solherrera5@yahoo.com>,,
306,Hoerth,Gustavo,gustavo.hoerth@gmail.com,Gustavo Hoerth <gustavo.hoerth@gmail.com>,,
307,Homps,Maria Andrea,andreahomps@hotmail.com,Maria Andrea Homps <andreahomps@hotmail.com>,,
308,Hoss,Irene,alicharlin@gmail.com,Irene Hoss <alicharlin@gmail.com>,,
309,Hoyos,Juan Carlos,hoyos.jc@gmail.com,Juan Carlos Hoyos <hoyos.jc@gmail.com>,,
310,Huespe,Americo,necohuespe@yahoo.com.ar,Americo Huespe <necohuespe@yahoo.com.ar>,,
311,Ibarra,Andres,andresnicolasibarra_1990@hotmail.com,Andres Ibarra <andresnicolasibarra_1990@hotmail.com>,,
312,Ifran,Ruben,rubenifran@yahoo.com.ar,Ruben Ifran <rubenifran@yahoo.com.ar>,,
313,Isla,Dora,doralisla@hotmail.com,Dora Isla <doralisla@hotmail.com>,,
314,Ismain,Ruben,ruben.ismain@yahoo.com.ar,Ruben Ismain <ruben.ismain@yahoo.com.ar>,,
315,Iturri,Mariano,marianohumanista@gmail.com,Mariano Iturri <marianohumanista@gmail.com>,,
316,Jaimon,Carlos,betojai@yahoo.com.ar,Carlos Jaimon <betojai@yahoo.com.ar>,,
317,Juan,Victor,gamma354@gmail.com,Victor Juan <gamma354@gmail.com>,,
318,Juarez,Marcelo,,Marcelo Juarez <>,,
319,Juarez Lertora,Rodolfo,rolo.network@gmail.com,Rodolfo Juarez Lertora <rolo.network@gmail.com>,,
320,Kernc,Monica,monicakernc@gmail.com,Monica Kernc <monicakernc@gmail.com>,,
321,Killian,Patricia,patriciakillian2007@gmail.com,Patricia Killian <patriciakillian2007@gmail.com>,,
322,Kohanoff,Roberto,kohanoff@gmail.com,Roberto Kohanoff <kohanoff@gmail.com>,,
323,Kovensky,Lea,kovenskylea@yahoo.com.ar,Lea Kovensky <kovenskylea@yahoo.com.ar>,,
324,Kozak,Ana Maria,ana_kozak@hotmail.com,Ana Maria Kozak <ana_kozak@hotmail.com>,,
325,Lado,Miriam,miriamnoe56@gmail.com,Miriam Lado <miriamnoe56@gmail.com>,,
326,Lamanna,Guido,,Guido Lamanna <>,,
327,Lamanna,Veronica,veronicadiana73@gmail.com,Veronica Lamanna <veronicadiana73@gmail.com>,,
328,Landa,Rolando,rolando.landa@gmail.com,Rolando Landa <rolando.landa@gmail.com>,,
329,Latorre,Javier,javierlatorre3@yahoo.com.ar,Javier Latorre <javierlatorre3@yahoo.com.ar>,,
330,Lavorato,Claudia,liloxl1@gmail.com,Claudia Lavorato <liloxl1@gmail.com>,,
331,Lazarte,Maria de las Mercedes,marudelta79@yahoo.com.ar,Maria de las Mercedes Lazarte <marudelta79@yahoo.com.ar>,,
332,Lazzatti,Graciela,gralazzatti@gmail.com,Graciela Lazzatti <gralazzatti@gmail.com>,,
333,Leal,Blanca,bl.mensaje@gmail.com,Blanca Leal <bl.mensaje@gmail.com>,,
334,Lefer,Hector,hectorlefer@yahoo.com.ar,Hector Lefer <hectorlefer@yahoo.com.ar>,,
335,Leguizamon,Haydee,haydee_leg@yahoo.com.ar,Haydee Leguizamon <haydee_leg@yahoo.com.ar>,,
336,Lejovitzky,Ricardo,rdlejo@enpalermo.com,Ricardo Lejovitzky <rdlejo@enpalermo.com>,,
337,Lejtman,Alicia,alicialej2002@yahoo.com.ar,Alicia Lejtman <alicialej2002@yahoo.com.ar>,,
338,Lema,Walter,rwalter2010@yahoo.com.ar,Walter Lema <rwalter2010@yahoo.com.ar>,,
339,Lhande,Jorge,jorgelhande@gmail.com,Jorge Lhande <jorgelhande@gmail.com>,,
340,Liska,Fernando,liskaf@gmail.com,Fernando Liska <liskaf@gmail.com>,,
341,Llevinton,Micaela,micahumanista@gmail.com,Micaela Llevinton <micahumanista@gmail.com>,,
342,Loiacono,Alejandro,alejandro@redhumanista.org,Alejandro Loiacono <alejandro@redhumanista.org>,,
343,Lopez,Daniel,zonamdq@yahoo.com.ar,Daniel Lopez <zonamdq@yahoo.com.ar>,,
344,Lopez,Fabio,fabio1g@gmail.com,Fabio Lopez <fabio1g@gmail.com>,,
345,Lopez,J. Alejandro,,J. Alejandro Lopez <>,,
346,Lopez,Pablo,pablo@redhumanista.org,Pablo Lopez <pablo@redhumanista.org>,,
347,Lorenzo,Carlos,carloslorenzo@copetel.com.ar,Carlos Lorenzo <carloslorenzo@copetel.com.ar>,,
348,Lozada,Maria Fernanda,lozadafernanda@gmail.com,Maria Fernanda Lozada <lozadafernanda@gmail.com>,,
349,Lucero,Ricardo,luceroricardo@yahoo.com.ar,Ricardo Lucero <luceroricardo@yahoo.com.ar>,,
350,Luciani,Carlos,lucianic2002@gmail.com,Carlos Luciani <lucianic2002@gmail.com>,,
351,Luna,Ernesto,dario_finished@hotmail.com,Ernesto Luna <dario_finished@hotmail.com>,,
352,Luna,Mabel,muchy.luna@gmail.com,Mabel Luna <muchy.luna@gmail.com>,,
353,Luna,Maria Mercedes,mariamerluna@yahoo.com.ar,Maria Mercedes Luna <mariamerluna@yahoo.com.ar>,,
354,Luna,Virginia,virginiaxi@gmail.com,Virginia Luna <virginiaxi@gmail.com>,,
355,Machuca,Ricardo,machucaruno@yahoo.com.ar,Ricardo Machuca <machucaruno@yahoo.com.ar>,,
356,Magdaleno,Isabel,mhisabel@yahoo.com.ar,Isabel Magdaleno <mhisabel@yahoo.com.ar>,,
357,Mahserdjian,Ana Maria,mahserd@gmail.com,Ana Maria Mahserdjian <mahserd@gmail.com>,,
358,Malvasio,Susana,susaeme@hotmail.com,Susana Malvasio <susaeme@hotmail.com>,,
359,Manso,Luis,laanarquiavencera@gmail.com,Luis Manso <laanarquiavencera@gmail.com>,,
360,Manzano,Manuel,manolo_mds@yahoo.com.ar,Manuel Manzano <manolo_mds@yahoo.com.ar>,,
361,Marcovecchio,Alejandro,ale_2620@hotmail.com,Alejandro Marcovecchio <ale_2620@hotmail.com>,,
362,Marinucci,Lucia,lucymarinucci@hotmail.com,Lucia Marinucci <lucymarinucci@hotmail.com>,,
363,Martin,Gerardo,warlines@gmail.com,Gerardo Martin <warlines@gmail.com>,,
364,Martinez,Ana,ana.mensajera@gmail.com,Ana Martinez <ana.mensajera@gmail.com>,,
365,Martinez,Diego,martinez.diego@gmail.com,Diego Martinez <martinez.diego@gmail.com>,,
366,Martinez,Evangelina ,evangelinamartinez71@hotmail.com,Evangelina  Martinez <evangelinamartinez71@hotmail.com>,,
367,Martinez,Fabiana,fabianamartinez@gmail.com,Fabiana Martinez <fabianamartinez@gmail.com>,,
368,Martinez,Javier,javo.martinez@gmail.com,Javier Martinez <javo.martinez@gmail.com>,,
369,Martinez,Luis,quedoalguno@yahoo.com.ar,Luis Martinez <quedoalguno@yahoo.com.ar>,,
370,Martinez,Mario,mariojuanm@gmail.com,Mario Martinez <mariojuanm@gmail.com>,,
371,Martinez Angelini,Mario,mariomarshe@gmail.com,Mario Martinez Angelini <mariomarshe@gmail.com>,,
372,Mateo,Jose Maria,jose.mateo.62@hotmail.com,Jose Maria Mateo <jose.mateo.62@hotmail.com>,,
373,Matiotti,Maria Graciela,mmatiotti@yahoo.com,Maria Graciela Matiotti <mmatiotti@yahoo.com>,,
374,Maturano Sojo,Melisa,melisanahi@gmail.com,Melisa Maturano Sojo <melisanahi@gmail.com>,,
375,Mazzoldi,Beatriz,beatriz@mazzoldi.com,Beatriz Mazzoldi <beatriz@mazzoldi.com>,,
376,Mazzoldi,Lautaro,lautaro_mazzoldi@hotmail.com,Lautaro Mazzoldi <lautaro_mazzoldi@hotmail.com>,,
377,Meister,Emilce,,Emilce Meister <>,,
378,Melo,Norma,nnildamelo@yahoo.com.ar,Norma Melo <nnildamelo@yahoo.com.ar>,,
379,Mendez,Hector,hectoromendez@gmail.com,Hector Mendez <hectoromendez@gmail.com>,,
380,Mendez,Lia,lia.mendez9@gmail.com,Lia Mendez <lia.mendez9@gmail.com>,,
381,Mendietta,Mariana,marianamendietta@gmail.com,Mariana Mendietta <marianamendietta@gmail.com>,,
382,Mercado,Sandra,sandrafmercado@yahoo.com.ar,Sandra Mercado <sandrafmercado@yahoo.com.ar>,,
383,Mercado Gerez,Ayelen,ayelengerez@gmail.com,Ayelen Mercado Gerez <ayelengerez@gmail.com>,,
384,Mercau,Julia,julia.mercau@gmail.com,Julia Mercau <julia.mercau@gmail.com>,,
385,Messina,Oriana,,Oriana Messina <>,,
386,Mezquita,Fabian,fabianmezquita@yahoo.com.ar,Fabian Mezquita <fabianmezquita@yahoo.com.ar>,,
387,Mierez,Jorge,jmierez@arnet.com.ar,Jorge Mierez <jmierez@arnet.com.ar>,,
388,Milani,Bruno,rimbodeltaud@gmail.com,Bruno Milani <rimbodeltaud@gmail.com>,,
389,Milani,Daniel,danielmilani06@gmail.com,Daniel Milani <danielmilani06@gmail.com>,,
390,Milani,Luis,lbmilani@gmail.com,Luis Milani <lbmilani@gmail.com>,,
391,Mileti,Oscar,oscarmileti@gmail.com,Oscar Mileti <oscarmileti@gmail.com>,,
392,Militano,Adriana,adrianamilitano@gmail.com,Adriana Militano <adrianamilitano@gmail.com>,,
393,Milla,Timoteo,serboch2002@yahoo.com,Timoteo Milla <serboch2002@yahoo.com>,,
394,Mingrone,Monica,mingronem@yahoo.com.ar,Monica Mingrone <mingronem@yahoo.com.ar>,,
395,Miranda,Jose Luis,joseluismiranda@gmail.com,Jose Luis Miranda <joseluismiranda@gmail.com>,,
396,Miranda,Maria de los Angeles,maru_undermyskin@hotmail.com,Maria de los Angeles Miranda <maru_undermyskin@hotmail.com>,,
397,Miró,Silvina,silvinamiro2003@yahoo.com.ar,Silvina Miró <silvinamiro2003@yahoo.com.ar>,,
398,Mirone Conde,Jorge,jorgemh333@hotmail.com,Jorge Mirone Conde <jorgemh333@hotmail.com>,,
399,Mlikota Gatica,Ludmila,ludmila.mlikota@hotmail.com,Ludmila Mlikota Gatica <ludmila.mlikota@hotmail.com>,,
400,Molfino,Hugo,hugomolfino@gmail.com,Hugo Molfino <hugomolfino@gmail.com>,,
401,Molina,Gustavo,tenetor@2vias.com.ar,Gustavo Molina <tenetor@2vias.com.ar>,,
402,Molinaro,Eduardo,molinarcroma@yahoo.com.ar,Eduardo Molinaro <molinarcroma@yahoo.com.ar>,,
403,Monaco,Eugenio,amegen791@gmail.com,Eugenio Monaco <amegen791@gmail.com>,,
404,Montecinos Molina,Ricardo,rmontecinosmolina@gmail.com,Ricardo Montecinos Molina <rmontecinosmolina@gmail.com>,,
405,Montemurro,Maria Eugenia,mmontemurro@hotmail.com,Maria Eugenia Montemurro <mmontemurro@hotmail.com>,,
406,Montemurro,Norma,normamontemurro@gmail.com,Norma Montemurro <normamontemurro@gmail.com>,,
407,Montenegro,Candy,candymh@gmail.com,Candy Montenegro <candymh@gmail.com>,,
408,Montero,Micaela,micaela.mntr@gmail.com,Micaela Montero <micaela.mntr@gmail.com>,,
409,Montes,Eduardo,emontes.c8@gmail.com,Eduardo Montes <emontes.c8@gmail.com>,,
410,Moreira,Obed,obedmoreira@gmail.com,Obed Moreira <obedmoreira@gmail.com>,,
411,Moreno,Daniel,sdanielmoreno@yahoo.com.ar,Daniel Moreno <sdanielmoreno@yahoo.com.ar>,,
412,Morrone,Fortunato,fortunatogm@gmail.com,Fortunato Morrone <fortunatogm@gmail.com>,,
413,Mozuc,Carlos,carlosmozuc@yahoo.com.ar,Carlos Mozuc <carlosmozuc@yahoo.com.ar>,,
414,Muga,Mutty,mutty.muga@gmail.com,Mutty Muga <mutty.muga@gmail.com>,,
415,Muñoz,Carlos,carlosdamian.munoz@gmail.com,Carlos Muñoz <carlosdamian.munoz@gmail.com>,,
416,Nadde,Marisa,marisanadde@hotmail.com,Marisa Nadde <marisanadde@hotmail.com>,,
417,Nagy,Patricia,patricianagy@gmail.com,Patricia Nagy <patricianagy@gmail.com>,,
418,Nahabian,Emilio,emiliomensajero@yahoo.com.ar,Emilio Nahabian <emiliomensajero@yahoo.com.ar>,,
419,Nasif,Soledad ,nasifsol@gmail.com,Soledad  Nasif <nasifsol@gmail.com>,,
420,Nasif,Virginia,,Virginia Nasif <>,,
421,Neiff,Astrid,astrid.neiff@gmail.com,Astrid Neiff <astrid.neiff@gmail.com>,,
422,Neiff,Erica,eneiff@yahoo.com.ar,Erica Neiff <eneiff@yahoo.com.ar>,,
423,Neiff,Ivan,ivanneiff@hotmail.com,Ivan Neiff <ivanneiff@hotmail.com>,,
424,Neva,Claudia,nevaclaudia@gmail.com,Claudia Neva <nevaclaudia@gmail.com>,,
425,Nicastro,Ezequiel,ezequielnic75@gmail.com,Ezequiel Nicastro <ezequielnic75@gmail.com>,,
426,Nicastro,Fabian,fabiannic@gmail.com,Fabian Nicastro <fabiannic@gmail.com>,,
427,Nicolini,Griselda,grinicolini@yahoo.com,Griselda Nicolini <grinicolini@yahoo.com>,,
428,Nobel,Isaias,isaias.nobel@gmail.com,Isaias Nobel <isaias.nobel@gmail.com>,,
429,Noro,Maria Guillermina,guillerminanoro@gmail.com,Maria Guillermina Noro <guillerminanoro@gmail.com>,,
430,Noro,Pedro,raulnoro@arnet.com.ar,Pedro Noro <raulnoro@arnet.com.ar>,,
431,Nuche Terroni,Martin,martin@humanistas50.org,Martin Nuche Terroni <martin@humanistas50.org>,,
432,Nuciari,Juan Carlos,jcnuciari@gmail.com,Juan Carlos Nuciari <jcnuciari@gmail.com>,,
433,Nuñez,Jose Manuel,jomanu2005@gmail.com,Jose Manuel Nuñez <jomanu2005@gmail.com>,,
434,Nuñez,Raul,rauln56@hotmail.com,Raul Nuñez <rauln56@hotmail.com>,,
435,Ocampo,Adriana,humadri@gmail.com,Adriana Ocampo <humadri@gmail.com>,,
436,Ocampo,Gustavo,gustaocampo@yahoo.com.ar,Gustavo Ocampo <gustaocampo@yahoo.com.ar>,,
437,Ojeda,Brenda,antilopesyrosas@gmail.com,Brenda Ojeda <antilopesyrosas@gmail.com>,,
438,Ojeda,Osvaldo,osvaldobenitez.6@gmail.com,Osvaldo Ojeda <osvaldobenitez.6@gmail.com>,,
439,Olivella,Marina,maru.c50@gmail.com,Marina Olivella <maru.c50@gmail.com>,,
440,Olondo,Adriana,aolondo@yahoo.com.ar,Adriana Olondo <aolondo@yahoo.com.ar>,,
441,Olondo,Sonia,sonia012@hotmail.com.ar,Sonia Olondo <sonia012@hotmail.com.ar>,,
442,Olveira,Susana,olveira@petroquimica.com.ar,Susana Olveira <olveira@petroquimica.com.ar>,,
443,Ordoñez,Alicia,alicia.ordonez@gmail.com,Alicia Ordoñez <alicia.ordonez@gmail.com>,,
444,Orille,María Isabel,maisaorille@hotmail.com,María Isabel Orille <maisaorille@hotmail.com>,,
445,Ortiz Zavalla,Marisu,marisuhumanista@gmail.com,Marisu Ortiz Zavalla <marisuhumanista@gmail.com>,,
446,Otero,Noemi,mimih@ciudad.com.ar,Noemi Otero <mimih@ciudad.com.ar>,,
447,Ovejero,Alicia ,as.ovejero@gmail.com,Alicia  Ovejero <as.ovejero@gmail.com>,,
448,Ovejero,Carlos,,Carlos Ovejero <>,,
449,Oviedo,Pablo,poviedo@lanacion.com.ar,Pablo Oviedo <poviedo@lanacion.com.ar>,,
450,Paiz,Alejandra,alejandra_paiz@yahoo.com.ar,Alejandra Paiz <alejandra_paiz@yahoo.com.ar>,,
451,Pampuro,Sandra,sandrapampuro@gmail.com,Sandra Pampuro <sandrapampuro@gmail.com>,,
452,Panciroli,Ruben Adrian,panchohum@hotmail.com,Ruben Adrian Panciroli <panchohum@hotmail.com>,,
453,Pantuso,Enrique,epantuso54@yahoo.com.ar,Enrique Pantuso <epantuso54@yahoo.com.ar>,,
454,Pardes,Jorge,jpardes@yahoo.com,Jorge Pardes <jpardes@yahoo.com>,,
455,Paredes,Catalino,katakallpa@yahoo.com.ar,Catalino Paredes <katakallpa@yahoo.com.ar>,,
456,Parentti,David,davidparentti@gmail.com,David Parentti <davidparentti@gmail.com>,,
457,Parson,Juan Carlos,jparson16@hotmail.com,Juan Carlos Parson <jparson16@hotmail.com>,,
458,Pascuale,Carla,carlapascuale@gmail.com,Carla Pascuale <carlapascuale@gmail.com>,,
459,Paz,Marisa,marisapaz46@hotmail.com,Marisa Paz <marisapaz46@hotmail.com>,,
460,Pedernera,Patricia,gppatricia@gmail.com,Patricia Pedernera <gppatricia@gmail.com>,,
461,Pellegrini,Andres,puchipellegrini@gmail.com,Andres Pellegrini <puchipellegrini@gmail.com>,,
462,Pensiero,Annalisa,annalisa.pensiero@gmail.com,Annalisa Pensiero <annalisa.pensiero@gmail.com>,,
463,Peralta,Paola,polyperalta2@hotmail.com,Paola Peralta <polyperalta2@hotmail.com>,,
464,Pereyra,Juan José,juanjosepereyra01@gmail.com,Juan José Pereyra <juanjosepereyra01@gmail.com>,,
465,Pereyra,Mariana,olvidate81@gmail.com,Mariana Pereyra <olvidate81@gmail.com>,,
466,Pereyra,Zulma,zulmacasanova@yahoo.com.ar,Zulma Pereyra <zulmacasanova@yahoo.com.ar>,,
467,Perez,Edgardo,edgardopa@gmail.com,Edgardo Perez <edgardopa@gmail.com>,,
468,Perrino,Jose Luis,jope65@gmail.com,Jose Luis Perrino <jope65@gmail.com>,,
469,Pescio,Juan Jose,cpnva2006@yahoo.com.ar,Juan Jose Pescio <cpnva2006@yahoo.com.ar>,,
470,Pesoa,Sandra,vpesoa@yahoo.com.ar,Sandra Pesoa <vpesoa@yahoo.com.ar>,,
471,Piccininni,Victor ,vpiccininni@gmail.com,Victor  Piccininni <vpiccininni@gmail.com>,,
472,Pignataro,Marcos,marcospignataro@gmail.com,Marcos Pignataro <marcospignataro@gmail.com>,,
473,Pignataro,Sergio,,Sergio Pignataro <>,,
474,Piotrowsky,Beatriz,bety@redhumanista.org,Beatriz Piotrowsky <bety@redhumanista.org>,,
475,Poletti,Sebastian,sebaspoletti@hotmail.com,Sebastian Poletti <sebaspoletti@hotmail.com>,,
476,Polla,Carlos,carlospolla@yahoo.com.ar,Carlos Polla <carlospolla@yahoo.com.ar>,,
477,Pollini,Emiliano,emilianopollini@gmail.com,Emiliano Pollini <emilianopollini@gmail.com>,,
478,Pompei,Jorge,jpompei@gmail.com,Jorge Pompei <jpompei@gmail.com>,,
479,Ponce de Leon,Blanca,jakadevosdepende@gmail.com,Blanca Ponce de Leon <jakadevosdepende@gmail.com>,,
480,Pozo,Jorge,jorgeptau@yahoo.com.ar,Jorge Pozo <jorgeptau@yahoo.com.ar>,,
481,Pozueco,Maryan,maryanpzc@gmail.com,Maryan Pozueco <maryanpzc@gmail.com>,,
482,Pozzi,Lucia,luciapozzi50@gmail.com,Lucia Pozzi <luciapozzi50@gmail.com>,,
483,Quaglia,Jorge,jorgequaglia@gmail.com,Jorge Quaglia <jorgequaglia@gmail.com>,,
484,Quijano,Fernando,quijanosten@yahoo.com.ar,Fernando Quijano <quijanosten@yahoo.com.ar>,,
485,Quiles,Noemi,nquiles8@gmail.com,Noemi Quiles <nquiles8@gmail.com>,,
486,Quiñones,Blas,blasmicorreo@gmail.com,Blas Quiñones <blasmicorreo@gmail.com>,,
487,Rainieri,Ana Maria,anarai1811@yahoo.com.ar,Ana Maria Rainieri <anarai1811@yahoo.com.ar>,,
488,Ramellini,Jose Luis,xenei77@hotmail.com,Jose Luis Ramellini <xenei77@hotmail.com>,,
489,Ramellini,Luis,luisramellini@yahoo.com.ar,Luis Ramellini <luisramellini@yahoo.com.ar>,,
490,Ramellini,Noelia,noe.ramellini@gmail.com,Noelia Ramellini <noe.ramellini@gmail.com>,,
491,Ramirez,Adrian,ezequiel_humanista@hotmail.com,Adrian Ramirez <ezequiel_humanista@hotmail.com>,,
492,Ramonino,Cuky,despertar2010@gmail.com,Cuky Ramonino <despertar2010@gmail.com>,,
493,Recuna,Diego,serhumanoesserdios@gmail.com,Diego Recuna <serhumanoesserdios@gmail.com>,,
494,Reinhardt,Evangelina,blaurein@hotmail.com,Evangelina Reinhardt <blaurein@hotmail.com>,,
495,Repetto,Marcelo,marepetto@ciudad.com.ar,Marcelo Repetto <marepetto@ciudad.com.ar>,,
496,Repetto,Marina,laultimalagrima@gmail.com,Marina Repetto <laultimalagrima@gmail.com>,,
497,Repetto,Mauro,,Mauro Repetto <>,,
498,Rey,Nelida,nelida.rey@gmail.com,Nelida Rey <nelida.rey@gmail.com>,,
499,Reymundo-Juarez,Thelma,thelmsjuarez@gmail.com,Thelma Reymundo-Juarez <thelmsjuarez@gmail.com>,,
500,Rios,Carmen,carmenriosjimenez@yahoo.fr,Carmen Rios <carmenriosjimenez@yahoo.fr>,,
501,Rios,Maria de los Angeles,mariariosar@yahoo.com.ar,Maria de los Angeles Rios <mariariosar@yahoo.com.ar>,,
502,Riso,Ana Maria  ,ana.riso@gmail.com,Ana Maria   Riso <ana.riso@gmail.com>,,
503,Ritzer,Maria Teresa,mariatritzer@hotmail.com,Maria Teresa Ritzer <mariatritzer@hotmail.com>,,
504,Rivera,Mabel,55.saeta@gmail.com,Mabel Rivera <55.saeta@gmail.com>,,
505,Rivero,Dorval,dorval.rivero@yahoo.com,Dorval Rivero <dorval.rivero@yahoo.com>,,
506,Rivero,Vicente,vicenterivero@gmail.com,Vicente Rivero <vicenterivero@gmail.com>,,
507,Rocca,Daniel,danielroccac79@yahoo.com.ar,Daniel Rocca <danielroccac79@yahoo.com.ar>,,
508,Rocha,Jorge,jorgerocha1948@gmail.com,Jorge Rocha <jorgerocha1948@gmail.com>,,
509,Rodriguez,Diego,diegohumanista@gmail.com,Diego Rodriguez <diegohumanista@gmail.com>,,
510,Rodriguez,Julio,julioomicron@hotmail.com,Julio Rodriguez <julioomicron@hotmail.com>,,
511,Rodriguez,Miriam,,Miriam Rodriguez <>,,
512,Rodriguez,Roberto,chicher2010@yahoo.com.ar,Roberto Rodriguez <chicher2010@yahoo.com.ar>,,
513,Rodriguez,Silvia,rosilhumanas@yahoo.com.ar,Silvia Rodriguez <rosilhumanas@yahoo.com.ar>,,
514,Rodriguez,Victor,victoryosos40@yahoo.com.ar,Victor Rodriguez <victoryosos40@yahoo.com.ar>,,
515,Rodriguez Abraham,Carmen,carmera@hotmail.com,Carmen Rodriguez Abraham <carmera@hotmail.com>,,
516,Rodriguez Abraham,Kory,koryrodriguez@yahoo.com.ar,Kory Rodriguez Abraham <koryrodriguez@yahoo.com.ar>,,
517,Rodriguez Uriburo,Teresita,tererodriguezuriburu@hotmail.com,Teresita Rodriguez Uriburo <tererodriguezuriburu@hotmail.com>,,
518,Roger,Alejandro,rogeroeste@gmail.com,Alejandro Roger <rogeroeste@gmail.com>,,
519,Roig,Hebe,heberoig@gmail.com,Hebe Roig <heberoig@gmail.com>,,
520,Rojas,Marina,marinarojasmh@gmail.com,Marina Rojas <marinarojasmh@gmail.com>,,
521,Rojas,Roberto,rrojas_ar@yahoo.com.ar,Roberto Rojas <rrojas_ar@yahoo.com.ar>,,
522,Roman ,Eduardo,roman-benja@hotmail.com,Eduardo Roman  <roman-benja@hotmail.com>,,
523,Romero,Cristian,cristian_m_romero@yahoo.com,Cristian Romero <cristian_m_romero@yahoo.com>,,
524,Romero,Marta,martabromero@hotmail.com,Marta Romero <martabromero@hotmail.com>,,
525,Romero,Maximiliano,maxxy.ar@gmail.com,Maximiliano Romero <maxxy.ar@gmail.com>,,
526,Romero,Rodrigo,rugge65@gmail.com,Rodrigo Romero <rugge65@gmail.com>,,
527,Rosa,Mario,ksttor@hotmail.com,Mario Rosa <ksttor@hotmail.com>,,
528,Rosas,Denis,denrosas@gmail.com,Denis Rosas <denrosas@gmail.com>,,
529,Rossetti,Ernesto,errossetti@yahoo.com.ar,Ernesto Rossetti <errossetti@yahoo.com.ar>,,
530,Rufat,Noelia,noeliasolrufat@yahoo.com,Noelia Rufat <noeliasolrufat@yahoo.com>,,
531,Ruggiero,Jorge,jorgeruggiero@gmail.com,Jorge Ruggiero <jorgeruggiero@gmail.com>,,
532,Ruiz,Bruno,mailabruce@hotmail.com,Bruno Ruiz <mailabruce@hotmail.com>,,
533,Ruiz,Eugenio ,eugeniocruiz@hotmail.com,Eugenio  Ruiz <eugeniocruiz@hotmail.com>,,
534,Ruiz,Roberto,elpurrete20042003@gmail.com,Roberto Ruiz <elpurrete20042003@gmail.com>,,
535,Ruiz ,Casto,tocastorui@gmail.com,Casto Ruiz  <tocastorui@gmail.com>,,
536,Ruiz Cabaleiro,Ramiro,ramiroruiz.1983@gmail.com,Ramiro Ruiz Cabaleiro <ramiroruiz.1983@gmail.com>,,
537,Ruiz de Eguilaz,Maria Antonia,maeguilaz@gmail.com,Maria Antonia Ruiz de Eguilaz <maeguilaz@gmail.com>,,
538,Russillo,Roberto,robertorussillo@yahoo.it,Roberto Russillo <robertorussillo@yahoo.it>,,
539,Saad,Celeste,ilkova.dima@gmail.com,Celeste Saad <ilkova.dima@gmail.com>,,
540,Sabate,Daniel,daniel_sabate@yahoo.com.ar,Daniel Sabate <daniel_sabate@yahoo.com.ar>,,
541,Sadi,Lea,sadilea2012@gmail.com,Lea Sadi <sadilea2012@gmail.com>,,
542,Salas,Marcelo,mfsalas87@gmail.com,Marcelo Salas <mfsalas87@gmail.com>,,
543,Salazar,Sandra,sandra@enpalermo.com,Sandra Salazar <sandra@enpalermo.com>,,
544,Salvadori,Natalia Pía,nati_218024@yahoo.com.ar,Natalia Pía Salvadori <nati_218024@yahoo.com.ar>,,
545,Sanchez,Claudia,claudiasanchez69@gmail.com,Claudia Sanchez <claudiasanchez69@gmail.com>,,
546,Santos,Carlos,carlossantosmenendez@gmail.com,Carlos Santos <carlossantosmenendez@gmail.com>,,
547,Sarmasky,Carlos,csarmasky@gmail.com,Carlos Sarmasky <csarmasky@gmail.com>,,
548,Sarmiento Vidal,Ana,anaisabel.sarmiento@gmail.com,Ana Sarmiento Vidal <anaisabel.sarmiento@gmail.com>,,
549,Satz,Stina,stina.satz@gmail.com,Stina Satz <stina.satz@gmail.com>,,
550,Scanarotti,Danilo,scanarotti-terra@hotmail.com,Danilo Scanarotti <scanarotti-terra@hotmail.com>,,
551,Scandali,Carina,,Carina Scandali <>,,
552,Schierff,Gustavo,gustavo.a.schierff@gmail.com,Gustavo Schierff <gustavo.a.schierff@gmail.com>,,
553,Schiulaz,Ariel,,Ariel Schiulaz <>,,
554,Scorpino,Fabian,fabianscorpino@yahoo.com.ar,Fabian Scorpino <fabianscorpino@yahoo.com.ar>,,
555,Segovia,Patricia,patrihumanista@gmail.com,Patricia Segovia <patrihumanista@gmail.com>,,
556,Segura,Lidia,seguralidia@yahoo.com.ar,Lidia Segura <seguralidia@yahoo.com.ar>,,
557,Sequeira,Pablo,pablosequeirar@gmail.com,Pablo Sequeira <pablosequeirar@gmail.com>,,
558,Serenelli,Hector,hectorserenelli@gmail.com,Hector Serenelli <hectorserenelli@gmail.com>,,
559,Serra,Gabriel,dune@telecentro.com.ar,Gabriel Serra <dune@telecentro.com.ar>,,
560,Serran,Jorge,,Jorge Serran <>,,
561,Serrano,Juan Pedro,,Juan Pedro Serrano <>,,
562,Serrudo,Mayra,mayraserrudo2004@yahoo.com.ar,Mayra Serrudo <mayraserrudo2004@yahoo.com.ar>,,
563,Silva,Claudia,claudia_cjo196@yahoo.com.ar,Claudia Silva <claudia_cjo196@yahoo.com.ar>,,
564,Silva,Marcelino,,Marcelino Silva <>,,
565,Silva,Maria Teresa,mariaonkus@yahoo.com.ar,Maria Teresa Silva <mariaonkus@yahoo.com.ar>,,
566,Silvestre,Hemry,hemrysilvestre@yahoo.com.ar,Hemry Silvestre <hemrysilvestre@yahoo.com.ar>,,
567,Sirianni,Mariano,el_etternauta@yahoo.com.ar,Mariano Sirianni <el_etternauta@yahoo.com.ar>,,
568,Solar,Sharon,sharonrobertasolar@gmail.com,Sharon Solar <sharonrobertasolar@gmail.com>,,
569,Soler,Adriana,adrianasoler@gmail.com,Adriana Soler <adrianasoler@gmail.com>,,
570,Sosa,Esther,esther_coli@yahoo.com.ar,Esther Sosa <esther_coli@yahoo.com.ar>,,
571,Sosa,Julio,juliowalter1982@gmail.com,Julio Sosa <juliowalter1982@gmail.com>,,
572,Sosa,Osvaldo,osvy29@gmail.com,Osvaldo Sosa <osvy29@gmail.com>,,
573,Sotelo,Silvina,sisph@yahoo.com,Silvina Sotelo <sisph@yahoo.com>,,
574,Soto,Cristina,cristinaisoto@yahoo.com.ar,Cristina Soto <cristinaisoto@yahoo.com.ar>,,
575,Sotomayor,Carlos,carlos_161069@yahoo.com,Carlos Sotomayor <carlos_161069@yahoo.com>,,
576,Souto,Carmen,carmensouto2002@yahoo.com.ar,Carmen Souto <carmensouto2002@yahoo.com.ar>,,
577,Spagnuolo,Maria Julieta ,julietaspagnuolo@yahoo.com.ar,Maria Julieta  Spagnuolo <julietaspagnuolo@yahoo.com.ar>,,
578,Spagnuolo Rozas,Mayra,mayracordera@yahoo.com.ar,Mayra Spagnuolo Rozas <mayracordera@yahoo.com.ar>,,
579,Spano,Sebastian,smspano@gmail.com,Sebastian Spano <smspano@gmail.com>,,
580,Spano,Sergio,sergiospano@gmail.com,Sergio Spano <sergiospano@gmail.com>,,
581,Stiglich,Gaspar,galufstopia@gmail.com,Gaspar Stiglich <galufstopia@gmail.com>,,
582,Suarez,Cristina,crisua@gmail.com,Cristina Suarez <crisua@gmail.com>,,
583,Sullings,Guillermo,guillermosullings@gmail.com,Guillermo Sullings <guillermosullings@gmail.com>,,
584,Surco Platas,Eduardo,surcoplatas@gmail.com,Eduardo Surco Platas <surcoplatas@gmail.com>,,
585,Tagliafico,Daniel,danieltagliafico@yahoo.com.ar,Daniel Tagliafico <danieltagliafico@yahoo.com.ar>,,
586,Tagliafico,Pachy,pachytagliafico@yahoo.com.ar,Pachy Tagliafico <pachytagliafico@yahoo.com.ar>,,
587,Talellis,Marina,marinatalellis@hotmail.com,Marina Talellis <marinatalellis@hotmail.com>,,
588,Tambasco,Felipe,lomfeli@hotmail.com,Felipe Tambasco <lomfeli@hotmail.com>,,
589,Tannchen,Marina,marinatannchen@gmail.com,Marina Tannchen <marinatannchen@gmail.com>,,
590,Taphanel,Pablo,pablotaphanel22@yahoo.com.ar,Pablo Taphanel <pablotaphanel22@yahoo.com.ar>,,
591,Tapia ,Ana Maria,anamltapia@yahoo.com.ar,Ana Maria Tapia  <anamltapia@yahoo.com.ar>,,
592,Tato,Nestor,ntatom@gmail.com,Nestor Tato <ntatom@gmail.com>,,
593,Tebes,Luis,tebes2@gmail.com,Luis Tebes <tebes2@gmail.com>,,
594,Tejada,Aldana,aldana_tejada@hotmail.com,Aldana Tejada <aldana_tejada@hotmail.com>,,
595,Tesorieri,Daniel,dates_21@yahoo.com.ar,Daniel Tesorieri <dates_21@yahoo.com.ar>,,
596,Thiébaut,Anne,annethiebaut@yahoo.fr,Anne Thiébaut <annethiebaut@yahoo.fr>,,
597,Tibaudin,Graciela,gtibaudin@speedy.com.ar,Graciela Tibaudin <gtibaudin@speedy.com.ar>,,
598,Tolentino Zamorano,Raul,tolen700@msn.com,Raul Tolentino Zamorano <tolen700@msn.com>,,
599,Tolosa,Carlos,eska2001ar@yahoo.com.ar,Carlos Tolosa <eska2001ar@yahoo.com.ar>,,
600,Torres,Veronica,veronica.julieta.torres@gmail.com,Veronica Torres <veronica.julieta.torres@gmail.com>,,
601,Traba,Elias,chavaliers@hotmail.com,Elias Traba <chavaliers@hotmail.com>,,
602,Traba,Gabriel,,Gabriel Traba <>,,
603,Tracchia,Evelyn ,evelyntracchia@hotmail.com.ar,Evelyn  Tracchia <evelyntracchia@hotmail.com.ar>,,
604,Udabe,Juan Carlos,jcudabe@gmail.com,Juan Carlos Udabe <jcudabe@gmail.com>,,
605,Unfer,Yasmin,chaz_min@hotmail.com,Yasmin Unfer <chaz_min@hotmail.com>,,
606,Uruzuna ,Florencia,floruzuna@gmail.com,Florencia Uruzuna  <floruzuna@gmail.com>,,
607,Valentin,Mariel,marielhumanista@gmail.com,Mariel Valentin <marielhumanista@gmail.com>,,
608,Vallejo,Eduardo,cesaredu-2005@hotmail.com,Eduardo Vallejo <cesaredu-2005@hotmail.com>,,
609,Vallejos Velardes,Silvia,silviamensajera@yahoo.com.ar,Silvia Vallejos Velardes <silviamensajera@yahoo.com.ar>,,
610,Vargas,Amelia,ame.vargas@yahoo.com.ar,Amelia Vargas <ame.vargas@yahoo.com.ar>,,
611,Vasquez,Marisol,sol_morena128@hotmail.com,Marisol Vasquez <sol_morena128@hotmail.com>,,
612,Vazquez,Ines,inesvazquez@gmail.com,Ines Vazquez <inesvazquez@gmail.com>,,
613,Velasco,Marta,martainesvelasco@yahoo.com.ar,Marta Velasco <martainesvelasco@yahoo.com.ar>,,
614,Velazquez,Pedro,petrarca1@gmail.com,Pedro Velazquez <petrarca1@gmail.com>,,
615,Veloz,Norma,nbv2903@gmail.com,Norma Veloz <nbv2903@gmail.com>,,
616,Veloz,Olga,veloz.olga@gmail.com,Olga Veloz <veloz.olga@gmail.com>,,
617,Venencio,Nilda,nildavenencio@gmail.com,Nilda Venencio <nildavenencio@gmail.com>,,
618,Venturino,Marcela,marceven2003@yahoo.com.ar,Marcela Venturino <marceven2003@yahoo.com.ar>,,
619,Vera,Romina,rominaveraperroux@gmail.com,Romina Vera <rominaveraperroux@gmail.com>,,
620,Verdi,Nicolas,nicolasverdi@gmail.com,Nicolas Verdi <nicolasverdi@gmail.com>,,
621,Verdu,Maria Emilse,cacuija@hotmail.com,Maria Emilse Verdu <cacuija@hotmail.com>,,
622,Veronese,Eleonora,eleonoraveronese@yahoo.com.ar,Eleonora Veronese <eleonoraveronese@yahoo.com.ar>,,
623,Vetere,Dario,dario_vetere@hotmail.com,Dario Vetere <dario_vetere@hotmail.com>,,
624,Vidal Zinno,Romina,romina.vidal.zinno@gmail.com,Romina Vidal Zinno <romina.vidal.zinno@gmail.com>,,
625,Viera,Edgardo,edgardo_viera2002@yahoo.com.ar,Edgardo Viera <edgardo_viera2002@yahoo.com.ar>,,
626,Viglieca,Gustavo,gviglieca@gmail.com,Gustavo Viglieca <gviglieca@gmail.com>,,
627,Vila,Jorge,vila.vilajorge@gmail.com,Jorge Vila <vila.vilajorge@gmail.com>,,
628,Vila,Lucia,lu.sonica@hotmail.com,Lucia Vila <lu.sonica@hotmail.com>,,
629,Vilca,Adriana,adrianavil19@hotmail.com,Adriana Vilca <adrianavil19@hotmail.com>,,
630,Violante,Jose,josevmdq53@yahoo.com.ar,Jose Violante <josevmdq53@yahoo.com.ar>,,
631,Vissani,Federico,federicovissani@gmail.com,Federico Vissani <federicovissani@gmail.com>,,
632,Vissani,Jose,josevissani@gmail.com,Jose Vissani <josevissani@gmail.com>,,
633,Vittori,Eugenia,eugeniavittori@yahoo.com.ar,Eugenia Vittori <eugeniavittori@yahoo.com.ar>,,
634,Walas,Sandra,sandra_walas@yahoo.com.ar,Sandra Walas <sandra_walas@yahoo.com.ar>,,
635,Wisnivesky,Cristina,,Cristina Wisnivesky <>,,
636,Yastrubni,Daniela,daniyastru@gmail.com,Daniela Yastrubni <daniyastru@gmail.com>,,
637,Yofre,Maria,maria.yofre@gmail.com,Maria Yofre <maria.yofre@gmail.com>,,
638,Zaldarriaga,Javier,,,,
639,Zimmermann,Daniel,zimmermannz@gmail.com,Daniel Zimmermann <zimmermannz@gmail.com>,,
640,,,,,,
641,,,,,,
642,,,,,,
643,,,,,,
