encabezados
02/04/18,Maria Eugenia Vittori,María Marcela Venturino,mar-18," $ 300 ",
08/04/18,Maria Eugenia Vittori,Maria Eugenia Vittori,abr-18," $ 500 ",
30/04/18,Maria Eugenia Vittori,Annalisa Pensiero,mar-18," $ 500 ",
30/04/18,Maria Eugenia Vittori,Annalisa Pensiero,abr-18," $ 500 ",
30/04/18,Maria Eugenia Vittori,Silvia Goyeneche,abr-18," $ 350 ",
24/03/18,Carlos Damián Muñoz,Fernando Contreras,dic-17," $ 400 ",
24/03/18,Carlos Damián Muñoz,Fernando Contreras,ene-18," $ 400 ",
27/03/18,Carlos Damián Muñoz,Alejandro Luis Ferrer,abr-18," $ 400 ",
31/03/18,Carlos Damián Muñoz,Santiago Gonzalez Rojo,mar-18," $ 500 ",
04/04/18,Carlos Damián Muñoz,Vincenzo Carella,mar-18," $ 150 ",
04/04/18,Carlos Damián Muñoz,Gladis Delgado,mar-18," $ 300 ",
04/04/18,Carlos Damián Muñoz,Romina Paola Vidal Zinno,abr-18," $ 500 ",
04/04/18,Carlos Damián Muñoz,Pablo Ariel Lopez,abr-18," $ 500 ",
07/04/18,Carlos Damián Muñoz,Diego Dorado,feb-18," $ 300 ",
07/04/18,Carlos Damián Muñoz,Diego Dorado,mar-18," $ 300 ",
07/04/18,Carlos Damián Muñoz,Diego Dorado,abr-18," $ 300 ",
07/04/18,Carlos Damián Muñoz,Diego Rodriguez,abr-18," $ 300 ",
08/04/18,Carlos Damián Muñoz,Gustavo Osvaldo Ocampo,abr-18," $ 400 ",
11/04/18,Carlos Damián Muñoz,Tamara Ferrer,mar-18," $ 350 ",
11/04/18,Carlos Damián Muñoz,Tamara Ferrer,abr-18," $ 350 ",
11/04/18,Carlos Damián Muñoz,Alejandra Paiz,abr-18," $ 300 ",
11/04/18,Carlos Damián Muñoz,Carlos Damián Muñoz,abr-18," $ 400 ",
21/04/18,Jose Luis Miranda,Agustina Culotta,mar-17," $ 200 ",
21/04/18,Jose Luis Miranda,Daniela Caldas,feb-18," $ 300 ",
21/04/18,Jose Luis Miranda,Alejandro Drandich,abr-18," $ 400 ",
21/04/18,Jose Luis Miranda,Fabiana Haydee Martinez,abr-18," $ 400 ",
21/04/18,Jose Luis Miranda,Fernando Oscar Fabiano,mar-18," $ 400 ",
21/04/18,Jose Luis Miranda,Fernando Oscar Fabiano,abr-18," $ 400 ",
21/04/18,Jose Luis Miranda,Maria Ines Ayarragaray,mar-18," $ 400 ",
21/04/18,Jose Luis Miranda,Maria Ines Ayarragaray,abr-18," $ 400 ",
21/04/18,Jose Luis Miranda,Pedro Calderon,abr-18," $ 400 ",
21/04/18,Jose Luis Miranda,Viviana Cano,abr-16," $ 350 ",
21/04/18,Jose Luis Miranda,Susana Maria Grillo,abr-18," $ 500 ",
21/04/18,Jose Luis Miranda,Melanie Clutterbuck,may-18," $ 300 ",
21/04/18,Jose Luis Miranda,Melanie Clutterbuck,jun-18," $ 300 ",
21/04/18,Jose Luis Miranda,Melanie Clutterbuck,jul-18," $ 300 ",
21/04/18,Jose Luis Miranda,Melanie Clutterbuck,ago-18," $ 300 ",
21/04/18,Jose Luis Miranda,Melanie Clutterbuck,sep-18," $ 300 ",
21/04/18,Jose Luis Miranda,Melanie Clutterbuck,oct-18," $ 500 ",
21/04/18,Jose Luis Miranda,Alberto Esteban Garcia,abr-18," $ 400 ",
21/04/18,Jose Luis Miranda,Angel Crego,abr-18," $ 400 ",
21/04/18,Jose Luis Miranda,Pablo Fernandez,abr-18," $ 200 ",
01/04/18,Néstor Jorge Avella,Guillermo Sullings,mar-18," $ 400 ",
01/04/18,Néstor Jorge Avella,Guillermo Sullings,abr-18," $ 400 ",
01/04/18,Néstor Jorge Avella,Guillermo Sullings,may-18," $ 400 ",
03/04/18,Néstor Jorge Avella,Ramiro Alejo Ruiz Cabaleiro,abr-18," $ 400 ",
21/03/18,Norma Nilda Melo,Ana Maria Angela Ribeiro,mar-18," $ 400 ",
21/03/18,Norma Nilda Melo,Diana Astete,mar-18," $ 500 ",
03/04/18,Norma Nilda Melo,Anabela Barberena,abr-18," $ 600 ",
03/04/18,Norma Nilda Melo,Claudia Barbagallo,abr-18," $ 400 ",
03/04/18,Norma Nilda Melo,Luis Tebes,abr-18," $ 400 ",
03/04/18,Norma Nilda Melo,Norma Nilda Melo,abr-18," $ 500 ",
05/04/18,Norma Nilda Melo,Luis Beltran,abr-18," $ 500 ",
05/04/18,Norma Nilda Melo,Benjamin Aquino,abr-18," $ 1.000 ",
05/04/18,Norma Nilda Melo,María Cristina Güntsche,abr-18," $ 1.000 ",
05/04/18,Norma Nilda Melo,Verónica Julieta Torres,abr-18," $ 300 ",
05/04/18,Norma Nilda Melo,Jorge Pompei,abr-18," $ 500 ",
09/04/18,Norma Nilda Melo,Carlos Omar Luciani,abr-18," $ 300 ",
09/04/18,Norma Nilda Melo,Florencia Uruzuna ,abr-18," $ 300 ",
09/04/18,Norma Nilda Melo,Lucero Catarineu,abr-18," $ 150 ",
09/04/18,Norma Nilda Melo,Oscar Mileti,abr-18," $ 150 ",
10/04/18,Norma Nilda Melo,Cecilia Benitez,abr-18," $ 200 ",
12/04/18,Norma Nilda Melo,Graciela Carmen Lazzatti,abr-18," $ 400 ",
12/04/18,Norma Nilda Melo,Alberto Mario Druetta,abr-18," $ 400 ",
14/04/18,Norma Nilda Melo,Raúl Eduardo Tolentino Zamorano,abr-18," $ 2.000 ",
30/03/18,Norma Nilda Melo,Roberto Kohanoff,abr-18," $ 400 ",
20/04/18,Norma Nilda Melo,Nestor Camillieri,abr-18," $ 350 ",
23/04/18,Rocío Balboa,Rocío Balboa,abr-18," $ 400 ",
23/04/18,Norma Nilda Melo,Anne Thiébaut,abr-18," $ 400 ",
27/04/18,Norma Nilda Melo,Sandra Walas,abr-18," $ 300 ",
24/04/18,Norma Nilda Melo,Diana Astete,abr-18," $ 500 ",
21/04/18,Javier Zaldarriaga,Fabián Nicastro,abr-18," $ 250 ",
10/04/18,Romina Vera,Romina Vera,abr-18," $ 400 ",
10/04/18,Angel De Natale,Maria Andrea Díaz Robledo,abr-18," $ 400 ",
10/04/18,Angel De Natale,Maria Andrea Díaz Robledo,may-18," $ 400 ",
10/04/18,Angel De Natale,Maria Andrea Díaz Robledo,jun-18," $ 400 ",
10/04/18,Angel De Natale,Omar Abraham,abr-18," $ 400 ",
10/04/18,Angel De Natale,Omar Abraham,may-18," $ 400 ",
10/04/18,Angel De Natale,Omar Abraham,jun-18," $ 400 ",
10/04/18,Angel De Natale,Angel De Natale,abr-18," $ 400 ",
10/04/18,Angel De Natale,Angel De Natale,may-18," $ 400 ",
10/04/18,Angel De Natale,Angel De Natale,jun-18," $ 400 ",
10/04/18,Nicolás Blanco,Dario Vetere,abr-18," $ 350 ",
10/04/18,Nicolás Blanco,Soledad Nasif,abr-18," $ 350 ",
10/04/18,Nicolás Blanco,Nicolás Blanco,abr-18," $ 350 ",
10/04/18,Nicolás Blanco,Claudia Cristina Balea,abr-18," $ 250 ",
10/04/18,Carina Mariana Fichera,Victor Piccinini,abr-18," $ 500 ",
10/04/18,Carina Mariana Fichera,Marcela Browne,abr-18," $ 500 ",
10/04/18,Carina Mariana Fichera,Cuky Ramonino,abr-18," $ 200 ",
10/04/18,Carina Mariana Fichera,Carlos Acevedo,abr-18," $ 300 ",
10/04/18,Carina Mariana Fichera,Ricardo Machuca,abr-18," $ 400 ",
10/04/18,Adriana Alicia Ocampo,Adriana Alicia Ocampo,may-18," $ 400 ",
10/04/18,Adriana Alicia Ocampo,Hernan Gonzalez,abr-18," $ 400 ",
10/04/18,Adriana Alicia Ocampo,Carla Antonela Pascuale,abr-18," $ 200 ",
10/04/18,Jano Arrechea,Jano Arrechea,mar-18," $ 300 ",
10/04/18,Patricia Segovia,Julio Aquino,mar-18," $ 500 ",
10/04/18,Patricia Segovia,Nelida Rey,mar-18," $ 375 ",
10/04/18,Patricia Segovia,Luis Ammann,mar-18," $ 375 ",
10/04/18,Patricia Segovia,Patricia Segovia,mar-18," $ 500 ",
10/04/18,Patricia Segovia,Pablo Ales,mar-18," $ 500 ",
10/04/18,Patricia Segovia,Pablo Ales,abr-18," $ 500 ",
01/05/18,Norma Nilda Melo,Noemi Otero,may-18," $ 300 ",
02/03/18,Norma Nilda Melo,Noemi Otero,jun-18," $ 300 ",
03/05/18,Norma Nilda Melo,Noemi Otero,jul-18," $ 400 ",
03/05/18,Norma Nilda Melo,Jorge Pompei,may-18," $ 500 ",
03/05/18,Norma Nilda Melo,Claudia Barbagallo,may-18," $ 400 ",
03/05/18,Norma Nilda Melo,Luis Tebes,may-18," $ 400 ",
03/05/18,Norma Nilda Melo,María Cristina Güntsche,may-18," $ 1.000 ",
05/05/18,Norma Nilda Melo,Benjamin Aquino,may-18," $ 1.000 ",
05/05/18,Norma Nilda Melo,Roberto Kohanoff,may-18," $ 400 ",
05/05/18,Norma Nilda Melo,Osvaldo Sosa,may-18," $ 500 ",
05/05/18,Norma Nilda Melo,Luis Beltran,may-18," $ 500 ",
05/05/18,Norma Nilda Melo,Anabela Barberena,may-18," $ 650 ",
05/05/18,Norma Nilda Melo,Hebe Irene Roig,ene-18," $ 350 ",
05/05/18,Norma Nilda Melo,Hebe Irene Roig,feb-18," $ 350 ",
05/05/18,Norma Nilda Melo,Hebe Irene Roig,mar-18," $ 350 ",
05/05/18,Norma Nilda Melo,Pia Argimon,may-18," $ 350 ",
05/05/18,Norma Nilda Melo,Pia Argimon,may-18," $ 350 ",
05/05/18,Norma Nilda Melo,Pia Argimon,may-18," $ 350 ",
08/05/18,Norma Nilda Melo,Blas Quiñones,may-18," $ 600 ",
08/05/18,Norma Nilda Melo,Norma Nilda Melo,may-18," $ 500 ",
08/05/18,Norma Nilda Melo,Diana Astete,abr-18," $ 500 ",
08/05/18,Norma Nilda Melo,Ana Maria Riso,may-18," $ 350 ",
08/05/18,Norma Nilda Melo,Ana Maria Riso,may-18," $ 350 ",
08/05/18,Norma Nilda Melo,Oscar Mileti,may-18," $ 150 ",
08/05/18,Norma Nilda Melo,Lucero Catarineu,may-18," $ 150 ",
08/05/18,Norma Nilda Melo,Carlos Omar Luciani,abr-18," $ 300 ",
10/05/18,Norma Nilda Melo,Lia Mendez,may-18," $ 500 ",
10/05/18,Norma Nilda Melo,Lia Mendez,may-18," $ 500 ",
11/05/18,Norma Nilda Melo,Alberto Mario Druetta,may-18," $ 400 ",
11/05/18,Norma Nilda Melo,Graciela Carmen Lazzatti,may-18," $ 400 ",
12/05/18,Norma Nilda Melo,Danilo Dario Scanarotti,may-18," $ 500 ",
14/05/18,Norma Nilda Melo,Nestor Camillieri,may-18," $ 350 ",
15/05/18,Norma Nilda Melo,Cecilia Benitez,may-18," $ 300 ",
16/05/18,Norma Nilda Melo,Florencia Uruzuna ,may-18," $ 300 ",
23/05/18,Norma Nilda Melo,Anne Thiebaut,may-18," $ 400 ",
23/05/18,Norma Nilda Melo,Rocío Balboa,may-18," $ 450 ",
07/05/18,Blanca Leal,Americo Huespe,may-18," $ 350 ",
07/05/18,Blanca Leal,Blanca Leal,may-18," $ 500 ",
12/04/18,Carlos Damián Muñoz,Celia Patricia Centurion Espínola,abr-18," $ 550 ",
14/04/18,Carlos Damián Muñoz,Santiago Gonzalez Rojo,abr-18," $ 500 ",
16/04/18,Carlos Damián Muñoz,Eva Guzman,feb-18," $ 300 ",
25/04/18,Carlos Damián Muñoz,Ana Maria Luisa Tapia,mar-18," $ 300 ",
25/04/18,Carlos Damián Muñoz,Ana Maria Luisa Tapia,abr-18," $ 300 ",
25/04/18,Carlos Damián Muñoz,Diego Recuna,may-18," $ 400 ",
10/05/18,Carlos Damián Muñoz,Celia Patricia Centurion Espínola,may-18," $ 600 ",
12/05/18,Carlos Damián Muñoz,Gustavo Osvaldo Ocampo,may-18," $ 400 ",
20/05/18,Maria Eugenia Vittori,Maria Eugenia Vittori,may-18," $ 500 ",
20/05/18,Maria Eugenia Vittori,Carlos Acevedo,may-18," $ 300 ",
20/05/18,Maria Eugenia Vittori,Thelma Reymundo-Juarez,may-18," $ 400 ",
20/05/18,Maria Eugenia Vittori,Rodolfo Oscar Juarez Lertora,may-18," $ 400 ",
31/05/18,Jose Luis Miranda,Alberto Esteban Garcia,may-18," $ 400 ",
31/05/18,Jose Luis Miranda,Agustina Culotta,mar-18," $ 200 ",
31/05/18,Jose Luis Miranda,Daniela Caldas,mar-18," $ 400 ",
31/05/18,Jose Luis Miranda,Fernando Liska,abr-18," $ 500 ",
31/05/18,Jose Luis Miranda,Andrés Pellegrini,may-18," $ 200 ",
31/05/18,Jose Luis Miranda,Norma Coronel,may-18," $ 200 ",
31/05/18,Jose Luis Miranda,Gustavo Bruno,abr-18," $ 400 ",
01/05/18,Martin Ubaldo Baez,Maria Fernanda Caprara,may-18," $ 350 ",
01/05/18,Martin Ubaldo Baez,Maria Fernanda Caprara,jun-18," $ 350 ",
01/05/18,Martin Ubaldo Baez,Rene Walter Lema,abr-18," $ 450 ",
14/05/18,Néstor Jorge Avella,Mayra Serrudo,abr-18," $ 500 ",
14/05/18,Néstor Jorge Avella,Néstor Jorge Avella,may-18," $ 500 ",
30/05/18,Néstor Jorge Avella,Ramiro Alejo Ruiz Cabaleiro,may-18," $ 500 ",
30/05/18,Néstor Jorge Avella,Mayra Serrudo,may-18," $ 500 ",
30/05/18,Néstor Jorge Avella,Néstor Jorge Avella,jun-18," $ 500 ",
01/05/18,Rocío Balboa,Gloria Garrido,abr-18," $ 300 ",
01/05/18,Rocío Balboa,Hector Lefer,abr-18," $ 400 ",
01/05/18,Rocío Balboa,Ricardo Anibal Lucero,abr-18," $ 300 ",
01/05/18,Nicolás Blanco,Dario Vetere,may-18," $ 350 ",
01/05/18,Nicolás Blanco,Soledad Nasif,may-18," $ 350 ",
01/05/18,Nicolás Blanco,Nicolás Blanco,may-18," $ 350 ",
01/05/18,Nicolás Blanco,Claudia Cristina Balea,may-18," $ 250 ",
10/05/18,Adriana Alicia Ocampo,Hernan Gonzalez,may-18," $ 400 ",
10/05/18,Adriana Alicia Ocampo,Ruben Ismain,may-18," $ 700 ",
10/05/18,Adriana Alicia Ocampo,Hilda Acosta,may-18," $ 200 ",
10/05/18,Adriana Alicia Ocampo,Angélica Branciforte,abr-18," $ 400 ",
10/05/18,Adriana Alicia Ocampo,Angélica Branciforte,may-18," $ 400 ",
30/05/18,Carina Mariana Fichera,David Parentti,may-18," $ 500 ",
30/05/18,Carina Mariana Fichera,David Parentti,jun-18," $ 500 ",
28/05/18,Javier Zaldarriaga,Fabián Nicastro,may-18," $ 250 ",
